<?xml version="1.0" encoding="utf-8"?>
<!-- Generator: Adobe Illustrator 19.2.0, SVG Export Plug-In . SVG Version: 6.00 Build 0)  -->
<svg version="1.1" id="Layer_1" xmlns="http://www.w3.org/2000/svg" xmlns:xlink="http://www.w3.org/1999/xlink" x="0px" y="0px"
	 viewBox="0 0 33.8 33.8" style="enable-background:new 0 0 33.8 33.8;" xml:space="preserve">
<style type="text/css">
	.st0{fill:#EC929D;}
</style>
<path class="st0" d="M17.2,33.1c-8.8,0-16-7.2-16-16c0-8.8,7.2-16,16-16c8.8,0,16,7.2,16,16C33.2,25.9,26.1,33.1,17.2,33.1z
	 M17.2,32.1c8.3,0,15-6.7,15-15c0-8.3-6.7-15-15-15c-8.3,0-15,6.7-15,15C2.2,25.3,8.9,32.1,17.2,32.1"/>
<polyline class="st0" points="16.7,7.7 17.7,7.7 17.7,21.1 16.7,21.1 16.7,7.7 "/>
<polyline class="st0" points="16.7,23.8 17.7,23.8 17.7,25.7 16.7,25.7 16.7,23.8 "/>
</svg>
