<?xml version="1.0" encoding="utf-8"?>
<!-- Generator: Adobe Illustrator 19.2.0, SVG Export Plug-In . SVG Version: 6.00 Build 0)  -->
<svg version="1.1" id="Layer_1" xmlns="http://www.w3.org/2000/svg" xmlns:xlink="http://www.w3.org/1999/xlink" x="0px" y="0px"
	 viewBox="0 0 26.2 9" style="enable-background:new 0 0 26.2 9;" xml:space="preserve">
<style type="text/css">
	.st0{fill:#49A282;}
</style>
<polyline class="st0" points="1.7,5.3 1.7,4.3 23,4.3 23,5.3 1.7,5.3 "/>
<path class="st0" d="M24.9,4.9l-0.7-0.7L24.9,4.9z M24.2,5.6l0.7-0.7L24.2,5.6z M24.2,4.2l0.7,0.7l-3.7,3.7l-0.7-0.7L24.2,4.2
	 M20.3,1.7L21,1l3.9,3.9l-0.7,0.7L20.3,1.7"/>
</svg>
