<?xml version="1.0" encoding="iso-8859-1"?>
<svg xmlns="http://www.w3.org/2000/svg" xmlns:xlink="http://www.w3.org/1999/xlink" version="1.1" id="Layer_1" x="0px" y="0px" viewBox="0 0 371.23 371.23" style="enable-background:new 0 0 371.23 371.23;" xml:space="preserve" width="512px" height="512px">
<polygon points="371.23,21.213 350.018,0 185.615,164.402 21.213,0 0,21.213 164.402,185.615 0,350.018 21.213,371.23   185.615,206.828 350.018,371.23 371.23,350.018 206.828,185.615 " fill="#ffffff"/>
</svg>
