<?xml version="1.0" encoding="utf-8"?>
<!-- Generator: Adobe Illustrator 19.2.0, SVG Export Plug-In . SVG Version: 6.00 Build 0)  -->
<svg version="1.1" id="Layer_1" xmlns="http://www.w3.org/2000/svg" xmlns:xlink="http://www.w3.org/1999/xlink" x="0px" y="0px"
	 viewBox="0 0 141 130.7" style="enable-background:new 0 0 141 130.7;" xml:space="preserve">
<style type="text/css">
	.st0{fill:#E6F1ED;}
	.st1{fill:#FFFFFF;}
	.st2{opacity:0.25;fill-rule:evenodd;clip-rule:evenodd;fill:#49A282;}
	.st3{fill-rule:evenodd;clip-rule:evenodd;fill:#49A282;}
	.st4{fill-rule:evenodd;clip-rule:evenodd;fill:#FA5A6D;}
	.st5{fill:#252525;}
	.st6{fill:#FF99A5;}
	.st7{fill-rule:evenodd;clip-rule:evenodd;fill:#6AC3A3;}
	.st8{opacity:0.25;fill-rule:evenodd;clip-rule:evenodd;fill:#419275;}
	.st9{fill:#59AA8D;}
</style>
<g>
	<g>
		<circle class="st0" cx="68.8" cy="64.6" r="63.4"/>
		<g>
			<path class="st1" d="M94.2,46h8c0.6,0,1-0.4,1-1s-0.4-1-1-1h-8c-0.6,0-1,0.4-1,1S93.6,46,94.2,46z"/>
			<path class="st1" d="M128.7,44h-4.6c-0.6,0-1,0.4-1,1s0.4,1,1,1h5.2C129.2,45.3,128.9,44.7,128.7,44z"/>
			<path class="st1" d="M119.2,45c0-0.6-0.4-1-1-1h-12c-0.6,0-1,0.4-1,1s0.4,1,1,1h12C118.7,46,119.2,45.6,119.2,45z"/>
		</g>
		<path class="st1" d="M117.8,65.4h1.8c0.6,0,1-0.4,1-1s-0.4-1-1-1h-1.8c-0.6,0-1,0.4-1,1S117.3,65.4,117.8,65.4z M105.8,65.4h8
			c0.6,0,1-0.4,1-1s-0.4-1-1-1h-8c-0.6,0-1,0.4-1,1S105.3,65.4,105.8,65.4z M87.8,65.4h12c0.6,0,1-0.4,1-1s-0.4-1-1-1h-12
			c-0.6,0-1,0.4-1,1S87.3,65.4,87.8,65.4z M75.8,65.4h8c0.6,0,1-0.4,1-1s-0.4-1-1-1h-8c-0.6,0-1,0.4-1,1S75.3,65.4,75.8,65.4z"/>
		<g>
			<path class="st1" d="M40.6,35.2c0.6,0,1-0.4,1-1c0-0.6-0.4-1-1-1h-8c-0.6,0-1,0.4-1,1c0,0.6,0.4,1,1,1H40.6z"/>
			<path class="st1" d="M27.6,34.2c0-0.6-0.4-1-1-1h-12c-0.6,0-1,0.4-1,1c0,0.6,0.4,1,1,1h12C27.2,35.2,27.6,34.8,27.6,34.2z"/>
			<path class="st1" d="M46.4,33.2h-1.8c-0.6,0-1,0.4-1,1c0,0.6,0.4,1,1,1h1.8c0.6,0,1-0.4,1-1C47.4,33.7,47,33.2,46.4,33.2z"/>
		</g>
		<g>
			<path class="st1" d="M36,15.9h8c0.6,0,1-0.4,1-1c0-0.6-0.4-1-1-1h-8c-0.6,0-1,0.4-1,1C35,15.4,35.5,15.9,36,15.9z"/>
			<path class="st1" d="M48,13.9c-0.6,0-1,0.4-1,1c0,0.6,0.4,1,1,1h12c0.6,0,1-0.4,1-1c0-0.6-0.4-1-1-1H48z"/>
			<path class="st1" d="M79.8,13.9H78c-0.6,0-1,0.4-1,1c0,0.6,0.4,1,1,1h1.8c0.6,0,1-0.4,1-1C80.8,14.3,80.3,13.9,79.8,13.9z"/>
			<path class="st1" d="M75,14.9c0-0.6-0.4-1-1-1h-8c-0.6,0-1,0.4-1,1c0,0.6,0.4,1,1,1h8C74.6,15.9,75,15.4,75,14.9z"/>
		</g>
		<g>
			<path class="st1" d="M12.3,82.6h8c0.6,0,1-0.4,1-1c0-0.6-0.4-1-1-1h-8c-0.6,0-1,0.4-1,1C11.3,82.2,11.8,82.6,12.3,82.6z"/>
			<path class="st1" d="M36.3,82.6c0.6,0,1-0.4,1-1c0-0.6-0.4-1-1-1h-12c-0.6,0-1,0.4-1,1c0,0.6,0.4,1,1,1H36.3z"/>
			<path class="st1" d="M56.1,80.6h-1.8c-0.6,0-1,0.4-1,1c0,0.6,0.4,1,1,1h1.8c0.6,0,1-0.4,1-1C57.1,81.1,56.7,80.6,56.1,80.6z"/>
			<path class="st1" d="M50.3,82.6c0.6,0,1-0.4,1-1c0-0.6-0.4-1-1-1h-8c-0.6,0-1,0.4-1,1c0,0.6,0.4,1,1,1H50.3z"/>
		</g>
		<g>
			<path class="st1" d="M81.3,114.6c-0.6,0-1,0.4-1,1c0,0.6,0.4,1,1,1h12c0.6,0,1-0.4,1-1c0-0.6-0.4-1-1-1H81.3z"/>
			<path class="st1" d="M77.3,116.6c0.6,0,1-0.4,1-1c0-0.6-0.4-1-1-1h-8c-0.6,0-1,0.4-1,1c0,0.6,0.4,1,1,1H77.3z"/>
			<path class="st1" d="M107.3,114.6h-8c-0.6,0-1,0.4-1,1c0,0.6,0.4,1,1,1h5.7c0.9-0.6,1.8-1.3,2.6-1.9
				C107.5,114.7,107.4,114.6,107.3,114.6z"/>
		</g>
		<g>
			<path class="st1" d="M30.6,96.6h8c0.6,0,1-0.4,1-1c0-0.6-0.4-1-1-1h-8c-0.6,0-1,0.4-1,1C29.6,96.2,30.1,96.6,30.6,96.6z"/>
			<path class="st1" d="M74.4,94.6h-1.8c-0.6,0-1,0.4-1,1c0,0.6,0.4,1,1,1h1.8c0.6,0,1-0.4,1-1C75.4,95.1,75,94.6,74.4,94.6z"/>
			<path class="st1" d="M42.6,94.6c-0.6,0-1,0.4-1,1c0,0.6,0.4,1,1,1h12c0.6,0,1-0.4,1-1c0-0.6-0.4-1-1-1H42.6z"/>
			<path class="st1" d="M69.6,95.6c0-0.6-0.4-1-1-1h-8c-0.6,0-1,0.4-1,1c0,0.6,0.4,1,1,1h8C69.2,96.6,69.6,96.2,69.6,95.6z"/>
		</g>
		<g>
			<path class="st1" d="M71.2,5.2h-1.8c-0.6,0-1,0.4-1,1c0,0.6,0.4,1,1,1h1.8c0.6,0,1-0.4,1-1C72.2,5.7,71.7,5.2,71.2,5.2z"/>
			<path class="st1" d="M57.4,5.2c-0.6,0-1,0.4-1,1c0,0.6,0.4,1,1,1h8c0.6,0,1-0.4,1-1c0-0.6-0.4-1-1-1H57.4z"/>
			<path class="st1" d="M51.4,7.2c0.6,0,1-0.4,1-1c0-0.6-0.4-1-1-1h-4.7c-1.6,0.6-3.2,1.3-4.7,2H51.4z"/>
		</g>
		<path class="st1" d="M123.7,33c-5.3-9.2-12.9-16.9-21.9-22.4H70.9c-6.2,0-11.2,5-11.2,11.2c0,6.2,5,11.2,11.2,11.2L123.7,33
			L123.7,33z"/>
		<path class="st1" d="M57.1,44.8H8.6c-2,6.2-3.2,12.9-3.2,19.8c0,0.9,0,1.8,0.1,2.6h51.6c6.2,0,11.2-5,11.2-11.2
			C68.3,49.9,63.3,44.8,57.1,44.8z"/>
		<path class="st1" d="M131.6,72.6H84.1c-6.2,0-11.2,5-11.2,11.2c0,6.2,5,11.2,11.2,11.2h40.3C128.1,88.2,130.6,80.6,131.6,72.6z"/>
	</g>
	<g>
		<path class="st2" d="M12.7,7.5h99.4c1.1,0,2,0.9,2,2v94.4c0,0-5.5,15.1-24.2,20.7c-18.6,5.6-39.5,4.6-55.9-6.7
			S10.7,91.4,10.7,90.3V9.5C10.7,8.3,11.6,7.5,12.7,7.5z"/>
		<path class="st3" d="M14.7,98V5.5c0-1.1,0.9-2,2-2h99.4c1.1,0,2,0.9,2,2v87.7c0,0,0.8,34.5-53.8,34.5C32.6,127.6,14.7,98,14.7,98"
			/>
		<rect x="14.7" y="11.8" class="st4" width="103.4" height="36.4"/>
		<path class="st5" d="M15.7,99.4V5.5c0-0.6,0.4-1,1-1h99.4c0.6,0,1,0.4,1,1v86.5h2V5.5c0-1.7-1.3-3-3-3H16.7c-1.7,0-3,1.3-3,3v90.9
			L15.7,99.4z"/>
		<polyline class="st6" points="21.5,22.2 46.5,22.2 46.5,20.2 21.5,20.2 		"/>
		<polyline class="st6" points="21.5,28.2 73.9,28.2 73.9,26.2 21.5,26.2 		"/>
		<polyline class="st6" points="21.5,40.2 54.7,40.2 54.7,38.2 21.5,38.2 		"/>
		<polyline class="st6" points="21.5,34.2 38.3,34.2 38.3,32.2 21.5,32.2 		"/>
		<polyline class="st5" points="15.3,13.4 117.3,13.4 117.3,11.4 15.3,11.4 		"/>
		<polyline class="st5" points="14.9,49.2 117.9,49.2 117.9,47.2 14.9,47.2 		"/>
		<polyline class="st5" points="15.2,92.8 118.1,92.8 118.1,90.8 15.2,90.8 		"/>
		<polyline class="st5" points="51.1,100 83.5,100 83.5,98 51.1,98 		"/>
		<polyline class="st5" points="60.5,106.3 73.7,106.3 73.7,104.3 60.5,104.3 		"/>
		<circle class="st7" cx="31.7" cy="62.4" r="8.2"/>
		<polyline class="st5" points="26.3,77.6 26.3,75.6 36.3,75.6 36.3,77.6 26.3,77.6 		"/>
		<polyline class="st5" points="23.5,82.6 23.5,80.6 38.3,80.6 38.3,82.6 23.5,82.6 		"/>
		<polyline class="st5" points="49.3,77.6 49.3,75.6 59.3,75.6 59.3,77.6 49.3,77.6 		"/>
		<polyline class="st5" points="46.5,82.6 46.5,80.6 61.3,80.6 61.3,82.6 46.5,82.6 		"/>
		<polyline class="st5" points="72.3,77.6 72.3,75.6 82.3,75.6 82.3,77.6 72.3,77.6 		"/>
		<polyline class="st5" points="69.5,82.6 69.5,80.6 84.3,80.6 84.3,82.6 69.5,82.6 		"/>
		<circle class="st7" cx="54.7" cy="62.4" r="8.2"/>
		<circle class="st7" cx="77.7" cy="62.4" r="8.2"/>
		<circle class="st8" cx="105.4" cy="85.2" r="31.6"/>
		<circle class="st7" cx="107.4" cy="83.2" r="31.6"/>
		<path class="st5" d="M107.4,114.9c-17.5,0-31.6-14.2-31.6-31.6c0-17.5,14.2-31.6,31.6-31.6c17.5,0,31.6,14.2,31.6,31.6
			C139,100.7,124.8,114.9,107.4,114.9z M107.4,112.9c16.3,0,29.6-13.3,29.6-29.6c0-16.3-13.3-29.6-29.6-29.6
			c-16.3,0-29.6,13.3-29.6,29.6C77.8,99.6,91,112.9,107.4,112.9"/>
		<path class="st9" d="M102.7,100l-4.5-4.5l23-23l4.5,4.5L102.7,100z M102.6,100L86.9,84.3l4.5-4.5l15.7,15.7L102.6,100z"/>
		<path class="st1" d="M103.7,97l-4.5-4.5l23-23l4.5,4.5L103.7,97z M103.6,97L87.9,81.3l4.5-4.5l15.7,15.7L103.6,97z"/>
	</g>
</g>
</svg>
