<?xml version="1.0" encoding="utf-8"?>
<!-- Generator: Adobe Illustrator 19.2.0, SVG Export Plug-In . SVG Version: 6.00 Build 0)  -->
<svg version="1.1" id="Layer_1" xmlns="http://www.w3.org/2000/svg" xmlns:xlink="http://www.w3.org/1999/xlink" x="0px" y="0px"
	 viewBox="0 0 1107 271" style="enable-background:new 0 0 1107 271;" xml:space="preserve">
<style type="text/css">
	.st0{fill:#FA5A6D;}
	.st1{fill:#49A282;}
	.st2{fill:#CCCCCC;}
</style>
<path class="st0" d="M351.5,44c-3,0-5.5-2.5-5.5-5.5c0-3,2.5-5.5,5.5-5.5c3,0,5.5,2.5,5.5,5.5C357,41.5,354.5,44,351.5,44z
	 M351.5,42c1.9,0,3.5-1.6,3.5-3.5s-1.6-3.5-3.5-3.5c-1.9,0-3.5,1.6-3.5,3.5S349.6,42,351.5,42"/>
<path class="st0" d="M787.5,84c-3,0-5.5-2.5-5.5-5.5c0-3,2.5-5.5,5.5-5.5c3,0,5.5,2.5,5.5,5.5C793,81.5,790.5,84,787.5,84z
	 M787.5,82c1.9,0,3.5-1.6,3.5-3.5c0-1.9-1.6-3.5-3.5-3.5c-1.9,0-3.5,1.6-3.5,3.5C784,80.4,785.6,82,787.5,82"/>
<path class="st0" d="M922.5,24c-3,0-5.5-2.5-5.5-5.5c0-3,2.5-5.5,5.5-5.5c3,0,5.5,2.5,5.5,5.5C928,21.5,925.5,24,922.5,24z
	 M922.5,22c1.9,0,3.5-1.6,3.5-3.5c0-1.9-1.6-3.5-3.5-3.5c-1.9,0-3.5,1.6-3.5,3.5C919,20.4,920.6,22,922.5,22"/>
<path class="st0" d="M55.5,35c-3,0-5.5-2.5-5.5-5.5c0-3,2.5-5.5,5.5-5.5c3,0,5.5,2.5,5.5,5.5C61,32.5,58.5,35,55.5,35z M55.5,33
	c1.9,0,3.5-1.6,3.5-3.5c0-1.9-1.6-3.5-3.5-3.5c-1.9,0-3.5,1.6-3.5,3.5C52,31.4,53.6,33,55.5,33"/>
<path class="st0" d="M159.5,168c-3,0-5.5-2.5-5.5-5.5c0-3,2.5-5.5,5.5-5.5c3,0,5.5,2.5,5.5,5.5C165,165.5,162.5,168,159.5,168z
	 M159.5,166c1.9,0,3.5-1.6,3.5-3.5s-1.6-3.5-3.5-3.5c-1.9,0-3.5,1.6-3.5,3.5S157.6,166,159.5,166"/>
<path class="st0" d="M42.5,202c-3,0-5.5-2.5-5.5-5.5c0-3,2.5-5.5,5.5-5.5c3,0,5.5,2.5,5.5,5.5C48,199.5,45.5,202,42.5,202z
	 M42.5,200c1.9,0,3.5-1.6,3.5-3.5s-1.6-3.5-3.5-3.5c-1.9,0-3.5,1.6-3.5,3.5S40.6,200,42.5,200"/>
<path class="st0" d="M852.5,173c-3,0-5.5-2.5-5.5-5.5c0-3,2.5-5.5,5.5-5.5c3,0,5.5,2.5,5.5,5.5C858,170.5,855.5,173,852.5,173z
	 M852.5,171c1.9,0,3.5-1.6,3.5-3.5s-1.6-3.5-3.5-3.5c-1.9,0-3.5,1.6-3.5,3.5S850.6,171,852.5,171"/>
<path class="st0" d="M1024.5,262c-3,0-5.5-2.5-5.5-5.5c0-3,2.5-5.5,5.5-5.5c3,0,5.5,2.5,5.5,5.5C1030,259.5,1027.5,262,1024.5,262z
	 M1024.5,260c1.9,0,3.5-1.6,3.5-3.5c0-1.9-1.6-3.5-3.5-3.5c-1.9,0-3.5,1.6-3.5,3.5C1021,258.4,1022.6,260,1024.5,260"/>
<path class="st0" d="M1092.5,94c-3,0-5.5-2.5-5.5-5.5c0-3,2.5-5.5,5.5-5.5c3,0,5.5,2.5,5.5,5.5C1098,91.5,1095.5,94,1092.5,94z
	 M1092.5,92c1.9,0,3.5-1.6,3.5-3.5c0-1.9-1.6-3.5-3.5-3.5c-1.9,0-3.5,1.6-3.5,3.5C1089,90.4,1090.6,92,1092.5,92"/>
<polyline class="st1" points="106.2,108.7 104,112 95,106 97.2,102.7 106.2,108.7 "/>
<polyline class="st1" points="251.2,22.8 247.9,25 242,15.9 245.3,13.7 251.2,22.8 "/>
<polyline class="st1" points="690.8,35.8 687.7,33.3 694.5,24.9 697.6,27.4 690.8,35.8 "/>
<polyline class="st1" points="981.2,48 979.8,44.3 990,40.6 991.4,44.4 981.2,48 "/>
<polyline class="st1" points="876.9,239.8 878.6,236.2 888.4,240.9 886.7,244.5 876.9,239.8 "/>
<polyline class="st1" points="190.2,240.1 188.9,236.3 199.1,232.7 200.4,236.4 190.2,240.1 "/>
<polyline class="st1" points="53,247.9 51,244.4 60.2,238.9 62.3,242.3 53,247.9 "/>
<polyline class="st1" points="1017.9,165.6 1019.8,162.1 1029.3,167.1 1027.5,170.6 1017.9,165.6 "/>
<path class="st2" d="M30.7,127.8c-0.3-1.3-1-2.5-2.2-3.2c-2.3-1.5-5.4-0.9-7,1.4l-0.1,0c-0.6,1-1.9,1.3-2.9,0.6s-1.3-1.9-0.6-2.9
	l-2.5-1.6c-1.5,2.4-0.9,5.5,1.5,7.1c2.3,1.5,5.4,0.9,7-1.4l0.1,0c0.6-1,1.9-1.3,2.9-0.6c0.5,0.3,0.8,0.8,0.9,1.3
	c0.1,0.5,0,1.1-0.3,1.6l2.5,1.6C30.8,130.5,31,129.1,30.7,127.8z"/>
<path class="st2" d="M204.7,82.8c-0.3-1.3-1-2.5-2.2-3.2c-2.3-1.5-5.4-0.9-7,1.4l-0.1,0c-0.6,1-1.9,1.3-2.9,0.6s-1.3-1.9-0.6-2.9
	l-2.5-1.6c-1.5,2.4-0.9,5.5,1.5,7.1c2.3,1.5,5.4,0.9,7-1.4l0.1,0c0.6-1,1.9-1.3,2.9-0.6c0.5,0.3,0.8,0.8,0.9,1.3
	c0.1,0.5,0,1.1-0.3,1.6l2.5,1.6C204.8,85.5,205,84.1,204.7,82.8z"/>
<path class="st2" d="M145.1,216.4c-1.1-0.7-2.5-1-3.8-0.7c-2.7,0.6-4.5,3.2-3.9,5.9l-0.1,0c0.2,1.1-0.5,2.3-1.6,2.5
	c-1.1,0.2-2.3-0.5-2.5-1.6l-2.9,0.6c0.6,2.8,3.3,4.5,6.1,3.9c2.7-0.6,4.5-3.2,4-5.9l0.1,0c-0.2-1.1,0.5-2.3,1.6-2.5
	c0.5-0.1,1.1,0,1.6,0.3c0.5,0.3,0.8,0.8,0.9,1.3l2.9-0.6C147,218.2,146.2,217.1,145.1,216.4z"/>
<path class="st2" d="M781.6,21.9c-1.1-0.7-2.5-1-3.8-0.7c-2.7,0.6-4.5,3.2-3.9,5.9l-0.1,0c0.2,1.1-0.5,2.3-1.6,2.5
	c-1.1,0.2-2.3-0.5-2.5-1.6l-2.9,0.6c0.6,2.8,3.3,4.5,6.1,3.9c2.7-0.6,4.5-3.2,4-5.9l0.1,0c-0.2-1.1,0.5-2.3,1.6-2.5
	c0.5-0.1,1.1,0,1.6,0.3c0.5,0.3,0.8,0.8,0.9,1.3l2.9-0.6C783.5,23.7,782.7,22.6,781.6,21.9z"/>
<path class="st2" d="M903.2,90.4c-0.8-1-2.1-1.7-3.5-1.8c-2.8-0.2-5.2,1.8-5.5,4.6l-0.1,0c-0.1,1.2-1.1,2-2.3,1.9s-2-1.1-1.9-2.3
	l-3-0.2c-0.2,2.8,1.9,5.3,4.7,5.5c2.8,0.2,5.2-1.8,5.5-4.6l0.1,0c0.1-1.2,1.1-2,2.3-1.9c0.6,0,1.1,0.3,1.4,0.7
	c0.4,0.4,0.5,1,0.5,1.5l3,0.2C904.5,92.7,904.1,91.4,903.2,90.4z"/>
<path class="st2" d="M951,181.7c0-1.3-0.6-2.6-1.6-3.6c-2-1.9-5.2-1.9-7.1,0.1l-0.1-0.1c-0.8,0.8-2.1,0.9-3,0.1
	c-0.8-0.8-0.9-2.1-0.1-3l-2.2-2.1c-1.9,2-1.9,5.3,0.2,7.2c2,1.9,5.2,1.9,7.1-0.1l0.1,0.1c0.8-0.8,2.1-0.9,3-0.1
	c0.4,0.4,0.6,0.9,0.7,1.5c0,0.6-0.2,1.1-0.6,1.5l2.2,2.1C950.5,184.3,951,183,951,181.7z"/>
</svg>
