<?xml version="1.0" encoding="utf-8"?>
<!-- Generator: Adobe Illustrator 19.2.0, SVG Export Plug-In . SVG Version: 6.00 Build 0)  -->
<svg version="1.1" id="Layer_1" xmlns="http://www.w3.org/2000/svg" xmlns:xlink="http://www.w3.org/1999/xlink" x="0px" y="0px"
	 viewBox="0 0 30.7 27" style="enable-background:new 0 0 30.7 27;" xml:space="preserve">
<style type="text/css">
	.st0{fill:#8A8A8A;}
</style>
<polyline class="st0" points="5,16 5,17 2.2,17 2.2,24.2 7.6,24.2 7.6,25.2 1.2,25.2 1.2,16 5,16 "/>
<path class="st0" d="M29.1,25.2h-7.7v-15h7.7V25.2z M28.1,24.2v-13h-5.7v13H28.1"/>
<path class="st0" d="M22.4,25.2H4.2v-22h18.2V25.2z M21.4,24.2V4.2H5.2v20.1H21.4"/>
<path class="st0" d="M23.3,4.2h-20V1.3h20V4.2z M22.3,3.2V2.3h-18v0.9H22.3"/>
<path class="st0" d="M10.4,10.3H6.7V6.2h3.7V10.3z M9.4,9.3V7.2H7.7v2.1H9.4"/>
<path class="st0" d="M15.2,10.3h-3.7V6.2h3.7V10.3z M14.2,9.3V7.2h-1.7v2.1H14.2"/>
<path class="st0" d="M20,10.3h-3.7V6.2H20V10.3z M19,9.3V7.2h-1.7v2.1H19"/>
<path class="st0" d="M10.4,16.3H6.7v-4.1h3.7V16.3z M9.4,15.3v-2.1H7.7v2.1H9.4"/>
<path class="st0" d="M15.2,16.3h-3.7v-4.1h3.7V16.3z M14.2,15.3v-2.1h-1.7v2.1H14.2"/>
<path class="st0" d="M20,16.3h-3.7v-4.1H20V16.3z M19,15.3v-2.1h-1.7v2.1H19"/>
<path class="st0" d="M10.4,22.3H6.7v-4.1h3.7V22.3z M9.4,21.3v-2.1H7.7v2.1H9.4"/>
<path class="st0" d="M15.2,22.3h-3.7v-4.1h3.7V22.3z M14.2,21.3v-2.1h-1.7v2.1H14.2"/>
<path class="st0" d="M20,22.3h-3.7v-4.1H20V22.3z M19,21.3v-2.1h-1.7v2.1H19"/>
<path class="st0" d="M27.2,16.3h-3.7v-4.1h3.7V16.3z M26.2,15.3v-2.1h-1.7v2.1H26.2"/>
<path class="st0" d="M27.2,22.3h-3.7v-4.1h3.7V22.3z M26.2,21.3v-2.1h-1.7v2.1H26.2"/>
</svg>
