<?xml version="1.0" encoding="utf-8"?>
<!-- Generator: Adobe Illustrator 19.2.0, SVG Export Plug-In . SVG Version: 6.00 Build 0)  -->
<svg version="1.1" id="Layer_1" xmlns="http://www.w3.org/2000/svg" xmlns:xlink="http://www.w3.org/1999/xlink" x="0px" y="0px"
	 viewBox="0 0 22.4 26.2" style="enable-background:new 0 0 22.4 26.2;" xml:space="preserve">
<style type="text/css">
	.st0{fill:#D7D7D7;}
</style>
<g>
	<path class="st0" d="M11.6,25.4c0,0-9.6-5.9-9.6-13.8C2,6.3,6.3,2,11.6,2c5.3,0,9.6,4.3,9.6,9.6C21.2,19.3,11.6,25.4,11.6,25.4z
		 M11.6,23.6c2.2-1.6,8.1-6.5,8.1-12c0-4.5-3.6-8.1-8.1-8.1c-4.5,0-8.1,3.6-8.1,8.1C3.5,17.3,9.4,22.1,11.6,23.6"/>
	<path class="st0" d="M11.6,15c-1.9,0-3.4-1.5-3.4-3.4c0-1.9,1.5-3.4,3.4-3.4c1.9,0,3.4,1.5,3.4,3.4C15,13.5,13.5,15,11.6,15z
		 M11.6,13.5c1.1,0,1.9-0.9,1.9-1.9s-0.9-1.9-1.9-1.9c-1.1,0-1.9,0.9-1.9,1.9S10.5,13.5,11.6,13.5"/>
</g>
</svg>
