<?xml version="1.0" encoding="utf-8"?>
<!-- Generator: Adobe Illustrator 19.2.0, SVG Export Plug-In . SVG Version: 6.00 Build 0)  -->
<svg version="1.1" id="Layer_1" xmlns="http://www.w3.org/2000/svg" xmlns:xlink="http://www.w3.org/1999/xlink" x="0px" y="0px"
	 viewBox="0 0 43.1 42.2" style="enable-background:new 0 0 43.1 42.2;" xml:space="preserve">
<style type="text/css">
	.st0{fill:#367D63;}
</style>
<path class="st0" d="M22.2,40.8c-10.5,0-19-8.5-19-19c0-10.5,8.5-19,19-19c10.5,0,19,8.5,19,19C41.2,32.3,32.7,40.8,22.2,40.8z
	 M22.2,39.8c9.9,0,18-8.1,18-18c0-9.9-8.1-18-18-18c-9.9,0-18,8.1-18,18C4.2,31.7,12.3,39.8,22.2,39.8"/>
<path class="st0" d="M30.5,28.1h-16c-0.6,0-1-0.4-1-1v-11c0-0.6,0.4-1,1-1h16c0.6,0,1,0.4,1,1v11C31.5,27.7,31,28.1,30.5,28.1z
	 M30.5,27.1L30.5,27.1v-11h-16v11H30.5"/>
<polyline class="st0" points="13.4,16.5 14,15.7 22.4,22.3 30.9,15.7 31.5,16.5 23,23.1 22.4,23.5 21.8,23.1 13.4,16.5 "/>
<polyline class="st0" points="31.2,27.2 24.8,20.9 24.1,21.6 30.5,27.9 "/>
<polyline class="st0" points="14.4,27.8 20.8,21.5 20.1,20.8 13.7,27.1 "/>
</svg>
