<?xml version="1.0" encoding="utf-8"?>
<!-- Generator: Adobe Illustrator 17.0.0, SVG Export Plug-In . SVG Version: 6.00 Build 0)  -->
<!DOCTYPE svg PUBLIC "-//W3C//DTD SVG 1.1//EN" "http://www.w3.org/Graphics/SVG/1.1/DTD/svg11.dtd">
<svg version="1.1" id="Layer_1" xmlns="http://www.w3.org/2000/svg" xmlns:xlink="http://www.w3.org/1999/xlink" x="0px" y="0px"
	 width="390.738px" height="185.239px" viewBox="4.486 105.933 390.738 185.239"
	 enable-background="new 4.486 105.933 390.738 185.239" xml:space="preserve">
<g>
	<path fill="#3885DE" d="M5.933,105.933h387.844c0.868,0,1.447,0.579,1.447,1.447v183.792c0,0.868-0.579,1.447-1.447,1.447H5.933
		c-0.868,0-1.447-0.579-1.447-1.447V107.381C4.486,106.657,5.21,105.933,5.933,105.933z"/>
	<path fill="#619EE5" d="M147.323,121.852h23.155c0.868,0,1.447-0.579,1.447-1.447s-0.579-1.447-1.447-1.447h-23.155
		c-0.868,0-1.447,0.579-1.447,1.447C145.876,121.129,146.454,121.852,147.323,121.852z M124.168,121.852h17.366
		c0.868,0,1.447-0.579,1.447-1.447s-0.579-1.447-1.447-1.447h-17.366c-0.868,0-1.447,0.579-1.447,1.447
		C122.721,121.129,123.3,121.852,124.168,121.852z M106.802,121.852h11.577c0.868,0,1.447-0.579,1.447-1.447
		s-0.579-1.447-1.447-1.447h-11.577c-0.868,0-1.447,0.579-1.447,1.447C105.355,121.129,105.933,121.852,106.802,121.852z
		 M60.492,121.852h23.155c0.868,0,1.447-0.579,1.447-1.447s-0.579-1.447-1.447-1.447H60.492c-0.868,0-1.447,0.579-1.447,1.447
		C59.045,121.129,59.624,121.852,60.492,121.852z M37.337,121.852h17.366c0.868,0,1.447-0.579,1.447-1.447s-0.579-1.447-1.447-1.447
		H37.337c-0.868,0-1.447,0.579-1.447,1.447C35.89,121.129,36.469,121.852,37.337,121.852z M19.971,121.852h11.577
		c0.868,0,1.447-0.579,1.447-1.447s-0.579-1.447-1.447-1.447H19.971c-0.868,0-1.447,0.579-1.447,1.447
		C18.524,121.129,19.103,121.852,19.971,121.852z"/>
	<path fill="#619EE5" d="M349.928,145.007h23.155c0.868,0,1.447-0.579,1.447-1.447c0-0.868-0.579-1.447-1.447-1.447h-23.155
		c-0.868,0-1.447,0.579-1.447,1.447C348.48,144.284,349.059,145.007,349.928,145.007z M326.773,145.007h17.366
		c0.868,0,1.447-0.579,1.447-1.447c0-0.868-0.579-1.447-1.447-1.447h-17.366c-0.868,0-1.447,0.579-1.447,1.447
		C325.326,144.284,325.904,145.007,326.773,145.007z M309.407,145.007h11.577c0.868,0,1.447-0.579,1.447-1.447
		c0-0.868-0.579-1.447-1.447-1.447h-11.577c-0.868,0-1.447,0.579-1.447,1.447C307.959,144.284,308.538,145.007,309.407,145.007z"/>
	<path fill="#619EE5" d="M312.301,205.789h23.155c0.868,0,1.447-0.579,1.447-1.447c0-0.868-0.579-1.447-1.447-1.447h-23.155
		c-0.868,0-1.447,0.579-1.447,1.447C310.854,205.065,311.433,205.789,312.301,205.789z M289.146,205.789h17.366
		c0.868,0,1.447-0.579,1.447-1.447c0-0.868-0.579-1.447-1.447-1.447h-17.366c-0.868,0-1.447,0.579-1.447,1.447
		C287.699,205.065,288.278,205.789,289.146,205.789z M271.78,205.789h11.577c0.868,0,1.447-0.579,1.447-1.447
		c0-0.868-0.579-1.447-1.447-1.447H271.78c-0.868,0-1.447,0.579-1.447,1.447C270.333,205.065,270.912,205.789,271.78,205.789z"/>
	<path fill="#2E78CB" d="M280.897,220.695h72.359c8.828,0,15.919,7.091,15.919,15.919c0,8.828-7.091,15.919-15.919,15.919h-72.359
		c-8.828,0-15.919-7.091-15.919-15.919S272.069,220.695,280.897,220.695z"/>
	<path fill="#2E78CB" d="M351.809,152.677h43.415v31.838h-43.415c-8.828,0-15.919-7.091-15.919-15.919
		C335.89,159.768,342.981,152.677,351.809,152.677z"/>
	<path fill="#2E78CB" d="M4.486,200.434h31.838c8.828,0,15.919,7.091,15.919,15.919c0,8.828-7.091,15.919-15.919,15.919H4.486
		C4.486,232.272,4.486,200.434,4.486,200.434z"/>
	<path fill="#2E78CB" d="M50.796,129.522h72.359c8.828,0,15.919,7.091,15.919,15.919s-7.091,15.919-15.919,15.919H50.796
		c-8.828,0-15.919-7.091-15.919-15.919C34.877,136.614,41.968,129.522,50.796,129.522z"/>
	<path fill="#2E78CB" d="M36.324,240.955h72.359c8.828,0,15.919,7.091,15.919,15.919c0,8.828-7.091,15.919-15.919,15.919H36.324
		c-8.828,0-15.919-7.091-15.919-15.919C20.405,248.046,27.496,240.955,36.324,240.955z"/>
	<path fill="#5993D5" d="M76.411,259.334h23.155c0.868,0,1.447-0.579,1.447-1.447s-0.579-1.447-1.447-1.447H76.411
		c-0.868,0-1.447,0.579-1.447,1.447C74.964,258.611,75.543,259.334,76.411,259.334z M53.256,259.334h17.366
		c0.868,0,1.447-0.579,1.447-1.447s-0.579-1.447-1.447-1.447H53.256c-0.868,0-1.447,0.579-1.447,1.447
		C51.809,258.611,52.388,259.334,53.256,259.334z M35.89,259.334h11.577c0.868,0,1.447-0.579,1.447-1.447s-0.579-1.447-1.447-1.447
		H35.89c-0.868,0-1.447,0.579-1.447,1.447C34.443,258.611,35.022,259.334,35.89,259.334z"/>
	<path fill="#619EE5" d="M358.611,272.359h23.155c0.868,0,1.447-0.579,1.447-1.447c0-0.868-0.579-1.447-1.447-1.447h-23.155
		c-0.868,0-1.447,0.579-1.447,1.447C357.164,271.635,357.742,272.359,358.611,272.359z M335.456,272.359h17.366
		c0.868,0,1.447-0.579,1.447-1.447c0-0.868-0.579-1.447-1.447-1.447h-17.366c-0.868,0-1.447,0.579-1.447,1.447
		C334.009,271.635,334.588,272.359,335.456,272.359z M318.09,272.359h11.577c0.868,0,1.447-0.579,1.447-1.447
		c0-0.868-0.579-1.447-1.447-1.447H318.09c-0.868,0-1.447,0.579-1.447,1.447C316.643,271.635,317.221,272.359,318.09,272.359z"/>
	<path fill="#619EE5" d="M193.054,162.518h123.878c2.46,0,4.342,1.881,4.342,4.342v125.76H188.712V166.86
		C188.712,164.399,190.593,162.518,193.054,162.518z"/>
	<path fill="#85BBFA" d="M164.11,148.046h123.878c2.46,0,4.342,1.881,4.342,4.342v140.232H159.768V152.388
		C159.768,149.928,161.65,148.046,164.11,148.046z"/>
	<path fill="#619EE5" d="M204.052,162.518H80.174c-2.46,0-4.342,1.881-4.342,4.342v125.76h132.561V166.86
		C208.394,164.399,206.512,162.518,204.052,162.518z"/>
	<path fill="#85BBFA" d="M232.996,148.046H109.117c-2.46,0-4.342,1.881-4.342,4.342v140.232h132.561V152.388
		C237.337,149.928,235.456,148.046,232.996,148.046z"/>
	<rect x="122.721" y="148.48" fill="#72A9E9" width="18.234" height="144.139"/>
	<rect x="251.52" y="148.48" fill="#72A9E9" width="18.234" height="144.139"/>
	<path fill="#FFFFFF" d="M130.825,292.475V137.771c0-2.46,1.881-4.342,4.342-4.342h123.878c2.46,0,4.342,1.881,4.342,4.342v154.848"
		/>
	<path fill="#2A67A8" d="M133.719,292.475h-2.894V137.916c0-2.46,1.881-4.342,4.342-4.342h123.878c2.46,0,4.342,1.881,4.342,4.342
		v154.703h-2.894V137.916c0-0.868-0.579-1.447-1.447-1.447H135.166c-0.868,0-1.447,0.579-1.447,1.447V292.475"/>
	<path fill="#F2C400" d="M150.507,148.191h92.619c2.46,0,4.486,2.026,4.486,4.486s-2.026,4.486-4.486,4.486h-92.619
		c-2.46,0-4.486-2.026-4.486-4.486C146.165,150.217,148.046,148.191,150.507,148.191z"/>
	<path fill="#F2C400" d="M150.507,171.346h20.26c2.46,0,4.486,2.026,4.486,4.486s-2.026,4.486-4.486,4.486h-20.26
		c-2.46,0-4.486-2.026-4.486-4.486C146.165,173.372,148.046,171.346,150.507,171.346z"/>
	<path fill="#F2C400" d="M150.507,195.948h63.676c2.46,0,4.486,2.026,4.486,4.486s-2.026,4.486-4.486,4.486h-63.676
		c-2.46,0-4.486-2.026-4.486-4.486C146.165,197.974,148.046,195.948,150.507,195.948z"/>
	<path fill="#F2C400" d="M150.507,220.55h78.148c2.46,0,4.486,2.026,4.486,4.486c0,2.46-2.026,4.486-4.486,4.486h-78.148
		c-2.46,0-4.486-2.026-4.486-4.486C146.165,222.576,148.046,220.55,150.507,220.55z"/>
	<path fill="#F2C400" d="M150.507,243.705h92.619c2.46,0,4.486,2.026,4.486,4.486c0,2.46-2.026,4.486-4.486,4.486h-92.619
		c-2.46,0-4.486-2.026-4.486-4.486C146.165,245.731,148.046,243.705,150.507,243.705z"/>
	<path fill="#F2C400" d="M150.507,268.307h34.732c2.46,0,4.486,2.026,4.486,4.486c0,2.46-2.026,4.486-4.486,4.486h-34.732
		c-2.46,0-4.486-2.026-4.486-4.486C146.165,270.333,148.046,268.307,150.507,268.307z"/>
</g>
</svg>
