<?xml version="1.0" encoding="utf-8"?>
<!-- Generator: Adobe Illustrator 16.0.0, SVG Export Plug-In . SVG Version: 6.00 Build 0)  -->
<!DOCTYPE svg PUBLIC "-//W3C//DTD SVG 1.1//EN" "http://www.w3.org/Graphics/SVG/1.1/DTD/svg11.dtd">
<svg version="1.1" id="Layer_1" xmlns="http://www.w3.org/2000/svg" xmlns:xlink="http://www.w3.org/1999/xlink" x="0px" y="0px"
	 width="141px" height="130.667px" viewBox="0 0 141 130.667" enable-background="new 0 0 141 130.667" xml:space="preserve">
<g>
	<circle fill-rule="evenodd" clip-rule="evenodd" fill="#E6F1ED" cx="70.087" cy="64.999" r="63.376"/>
	<g>
		<path fill="#FFFFFF" d="M95.458,46.368h8c0.552,0,1-0.447,1-1s-0.448-1-1-1h-8c-0.553,0-1,0.447-1,1S94.905,46.368,95.458,46.368z
			"/>
		<path fill="#FFFFFF" d="M130.009,44.368h-4.552c-0.553,0-1,0.447-1,1s0.447,1,1,1h5.217
			C130.467,45.694,130.238,45.032,130.009,44.368z"/>
		<path fill="#FFFFFF" d="M120.458,45.368c0-0.553-0.448-1-1-1h-12c-0.553,0-1,0.447-1,1s0.447,1,1,1h12
			C120.009,46.368,120.458,45.921,120.458,45.368z"/>
	</g>
	<path fill="#FFFFFF" d="M119.153,65.75h1.789c0.552,0,1-0.447,1-1s-0.448-1-1-1h-1.789c-0.555,0-1,0.447-1,1
		S118.598,65.75,119.153,65.75z M107.153,65.75h8c0.55,0,1-0.447,1-1s-0.45-1-1-1h-8c-0.555,0-1,0.447-1,1
		S106.598,65.75,107.153,65.75z M89.153,65.75h12c0.55,0,1-0.447,1-1s-0.45-1-1-1h-12c-0.555,0-1,0.447-1,1
		S88.598,65.75,89.153,65.75z M77.153,65.75h8c0.553,0,1-0.447,1-1s-0.447-1-1-1h-8c-0.553,0-1,0.447-1,1S76.6,65.75,77.153,65.75z"
		/>
	<g>
		<path fill="#FFFFFF" d="M41.93,35.6c0.553,0,1-0.447,1-1c0-0.552-0.447-1-1-1h-8c-0.553,0-1,0.448-1,1c0,0.553,0.447,1,1,1H41.93z
			"/>
		<path fill="#FFFFFF" d="M28.93,34.6c0-0.552-0.447-1-1-1h-12c-0.553,0-1,0.448-1,1c0,0.553,0.447,1,1,1h12
			C28.483,35.6,28.93,35.152,28.93,34.6z"/>
		<path fill="#FFFFFF" d="M47.719,33.6H45.93c-0.553,0-1,0.448-1,1c0,0.553,0.447,1,1,1h1.789c0.552,0,1-0.447,1-1
			C48.719,34.048,48.271,33.6,47.719,33.6z"/>
	</g>
	<g>
		<path fill="#FFFFFF" d="M37.31,16.218h8c0.552,0,1-0.447,1-1c0-0.552-0.448-1-1-1h-8c-0.553,0-1,0.448-1,1
			C36.31,15.771,36.757,16.218,37.31,16.218z"/>
		<path fill="#FFFFFF" d="M49.31,14.218c-0.553,0-1,0.448-1,1c0,0.553,0.447,1,1,1h12c0.552,0,1-0.447,1-1c0-0.552-0.448-1-1-1
			H49.31z"/>
		<path fill="#FFFFFF" d="M81.1,14.218h-1.79c-0.553,0-1,0.448-1,1c0,0.553,0.447,1,1,1h1.79c0.553,0,1.001-0.447,1.001-1
			C82.101,14.666,81.653,14.218,81.1,14.218z"/>
		<path fill="#FFFFFF" d="M76.31,15.218c0-0.552-0.448-1-1-1h-8c-0.553,0-1,0.448-1,1c0,0.553,0.447,1,1,1h8
			C75.862,16.218,76.31,15.771,76.31,15.218z"/>
	</g>
	<g>
		<path fill="#FFFFFF" d="M13.621,82.979h8c0.553,0,1-0.447,1-1c0-0.552-0.447-1-1-1h-8c-0.552,0-1,0.448-1,1
			C12.621,82.532,13.069,82.979,13.621,82.979z"/>
		<path fill="#FFFFFF" d="M37.621,82.979c0.553,0,1-0.447,1-1c0-0.552-0.447-1-1-1h-12c-0.552,0-1,0.448-1,1c0,0.553,0.448,1,1,1
			H37.621z"/>
		<path fill="#FFFFFF" d="M57.41,80.979h-1.789c-0.552,0-1,0.448-1,1c0,0.553,0.448,1,1,1h1.789c0.553,0,1-0.447,1-1
			C58.41,81.428,57.962,80.979,57.41,80.979z"/>
		<path fill="#FFFFFF" d="M51.621,82.979c0.553,0,1-0.447,1-1c0-0.552-0.447-1-1-1h-8c-0.552,0-1,0.448-1,1c0,0.553,0.448,1,1,1
			H51.621z"/>
	</g>
	<g>
		<path fill="#FFFFFF" d="M82.621,114.979c-0.552,0-1,0.448-1,1c0,0.553,0.448,1,1,1h12c0.553,0,1-0.447,1-1c0-0.552-0.447-1-1-1
			H82.621z"/>
		<path fill="#FFFFFF" d="M78.621,116.979c0.553,0,1-0.447,1-1c0-0.552-0.447-1-1-1h-8c-0.552,0-1,0.448-1,1c0,0.553,0.448,1,1,1
			H78.621z"/>
		<path fill="#FFFFFF" d="M108.621,114.979h-8c-0.552,0-1,0.448-1,1c0,0.553,0.448,1,1,1h5.705c0.892-0.622,1.765-1.268,2.621-1.935
			C108.843,115.009,108.737,114.979,108.621,114.979z"/>
	</g>
	<g>
		<path fill="#FFFFFF" d="M31.925,96.978h8c0.553,0,1-0.448,1-1c0-0.553-0.447-1-1-1h-8c-0.552,0-1,0.447-1,1
			C30.925,96.529,31.374,96.978,31.925,96.978z"/>
		<path fill="#FFFFFF" d="M75.716,94.978h-1.791c-0.552,0-1,0.447-1,1c0,0.552,0.448,1,1,1h1.791c0.553,0,1-0.448,1-1
			C76.716,95.425,76.269,94.978,75.716,94.978z"/>
		<path fill="#FFFFFF" d="M43.925,94.978c-0.552,0-1,0.447-1,1c0,0.552,0.448,1,1,1h12c0.553,0,1-0.448,1-1c0-0.553-0.447-1-1-1
			H43.925z"/>
		<path fill="#FFFFFF" d="M70.925,95.978c0-0.553-0.447-1-1-1h-8c-0.552,0-1,0.447-1,1c0,0.552,0.448,1,1,1h8
			C70.478,96.978,70.925,96.529,70.925,95.978z"/>
	</g>
	<g>
		<path fill="#FFFFFF" d="M72.487,5.604h-1.791c-0.552,0-1,0.448-1,1c0,0.553,0.448,1,1,1h1.791c0.553,0,1-0.447,1-1
			C73.487,6.053,73.04,5.604,72.487,5.604z"/>
		<path fill="#FFFFFF" d="M58.696,5.604c-0.552,0-1,0.448-1,1c0,0.553,0.448,1,1,1h8c0.553,0,1-0.447,1-1c0-0.552-0.447-1-1-1
			H58.696z"/>
		<path fill="#FFFFFF" d="M52.696,7.604c0.553,0,1-0.447,1-1c0-0.552-0.447-1-1-1h-4.744c-1.615,0.603-3.197,1.272-4.747,2H52.696z"
			/>
	</g>
	<path fill-rule="evenodd" clip-rule="evenodd" fill="#FFFFFF" d="M124.963,33.312c-5.316-9.187-12.858-16.922-21.907-22.445H72.246
		c-6.197,0-11.223,5.024-11.223,11.223c0,6.197,5.025,11.223,11.223,11.223H124.963z"/>
	<path fill-rule="evenodd" clip-rule="evenodd" fill="#FFFFFF" d="M58.382,45.195H9.885C7.836,51.429,6.712,58.081,6.712,65
		c0,0.886,0.031,1.764,0.066,2.641h51.604c6.2,0,11.223-5.024,11.223-11.223C69.605,50.221,64.583,45.195,58.382,45.195z"/>
	<path fill-rule="evenodd" clip-rule="evenodd" fill="#FFFFFF" d="M132.952,72.923H85.451c-6.198,0-11.223,5.024-11.223,11.223
		c0,6.197,5.024,11.223,11.223,11.223h40.271C129.451,88.551,131.948,80.97,132.952,72.923z"/>
</g>
<g>
	<path fill-rule="evenodd" clip-rule="evenodd" fill="#49A284" d="M38.487,48.873c0,0,20.904,9.627,20.904,9.709
		c0,31.236-20.904,37.934-20.904,37.934s-20.904-7.197-20.904-37.934C17.583,58.5,38.487,48.873,38.487,48.873z"/>
	<path fill-rule="evenodd" clip-rule="evenodd" fill="#39886D" d="M51.68,43.652c0,0,18.618,9.078,18.615,9.151
		c-0.619,28.106-19.563,33.717-19.563,33.717s-18.668-6.892-18.056-34.548C32.678,51.9,51.68,43.652,51.68,43.652z"/>
	<path fill="#252525" d="M38.487,48.873l-0.009-0.004L38.487,48.873z M38.487,96.516c0,0-20.904-7.197-20.904-37.934
		c0-0.082,20.904-9.709,20.904-9.709s20.904,9.627,20.904,9.709C59.391,89.818,38.487,96.516,38.487,96.516z M38.509,94.373
		C41.875,93,56.908,85.437,57.38,59.827c-3.082-1.455-12.195-5.666-18.894-8.752c-6.695,3.086-15.809,7.297-18.891,8.752
		C20.076,85.05,35.144,92.928,38.509,94.373"/>
	<path fill="#FFFFFF" d="M29.678,57.187l0.963,1.752l-6.99,3.846c0,0-0.264,8.13,4.427,15.848
		c3.614,5.943,9.438,10.022,9.438,10.022l-1.146,1.639c-0.252-0.177-6.213-4.391-10.002-10.622
		c-4.943-8.135-4.729-16.594-4.716-16.95l0.036-1.139l0.998-0.55L29.678,57.187"/>
	<path fill-rule="evenodd" clip-rule="evenodd" fill="#49A284" d="M102.655,48.873c0,0,20.902,9.627,20.902,9.709
		c0,31.236-20.902,37.934-20.902,37.934S81.75,89.318,81.75,58.582C81.75,58.5,102.655,48.873,102.655,48.873z"/>
	<path fill-rule="evenodd" clip-rule="evenodd" fill="#39886D" d="M88.138,43.568c0,0,18.618,9.078,18.615,9.151
		C106.134,80.826,87.19,86.438,87.19,86.438s-18.668-6.893-18.056-34.548C69.136,51.816,88.138,43.568,88.138,43.568z"/>
	<path fill="#252525" d="M102.655,48.873l-0.009-0.004L102.655,48.873z M102.655,96.516c0,0-20.904-7.197-20.904-37.934
		c0-0.082,20.904-9.709,20.904-9.709s20.902,9.627,20.902,9.709C123.557,89.818,102.655,96.516,102.655,96.516z M102.668,94.37
		c1.448-0.602,5.189-2.432,8.978-6.475c6.264-6.687,9.675-16.373,9.9-28.068c-3.082-1.455-12.196-5.666-18.892-8.752
		c-6.697,3.086-15.811,7.297-18.893,8.752C84.242,85.034,99.292,92.916,102.668,94.37"/>
	<path fill="#FFFFFF" d="M93.844,57.187l0.966,1.752l-6.993,3.846c0,0-0.264,8.13,4.429,15.848
		c3.611,5.943,9.439,10.022,9.439,10.022l-1.148,1.639c-0.252-0.177-6.214-4.391-10-10.622c-4.945-8.135-4.729-16.594-4.718-16.95
		l0.036-1.139l0.998-0.55L93.844,57.187"/>
	<path fill-rule="evenodd" clip-rule="evenodd" fill="#FA5A6D" d="M69.502,26.541c0,0,33.005,15.2,33.005,15.33
		c0,49.314-33.005,59.888-33.005,59.888S36.499,90.396,36.499,41.871C36.499,41.741,69.502,26.541,69.502,26.541z"/>
	<path fill="#252525" d="M69.502,26.541l-0.009-0.005L69.502,26.541z M69.502,101.759c0,0-33.004-11.363-33.004-59.888
		c0-0.13,33.004-15.33,33.004-15.33s33.005,15.2,33.005,15.33C102.507,91.185,69.502,101.759,69.502,101.759z M69.523,99.627
		c4.555-1.74,30.489-13.545,30.976-56.52c-4.159-1.978-19.83-9.221-30.996-14.364c-11.168,5.143-26.838,12.386-30.997,14.364
		C39.005,85.411,64.975,97.786,69.523,99.627"/>
	<path fill="#FFB4BD" d="M56.153,40.682L44.117,47.3l-0.039,1.139c0,0.021-0.004,0.175-0.004,0.446
		c0.011,2.409,0.331,14.207,7.286,25.679c5.995,9.827,15.356,16.332,15.464,16.423c0.904,0.632,2.151,0.411,2.783-0.493
		c0.635-0.904,0.414-2.152-0.49-2.784c-0.025,0-8.93-6.286-14.339-15.223c-6.363-10.437-6.716-21.588-6.704-23.602
		c0-0.225,0.004-0.314,0.002-0.314l-1.998-0.066l0.964,1.752l11.039-6.07c0.968-0.532,1.32-1.748,0.788-2.716
		C58.334,40.502,57.119,40.148,56.153,40.682z"/>
</g>
</svg>
