<?xml version="1.0" encoding="utf-8"?>
<!-- Generator: Adobe Illustrator 16.0.0, SVG Export Plug-In . SVG Version: 6.00 Build 0)  -->
<!DOCTYPE svg PUBLIC "-//W3C//DTD SVG 1.1//EN" "http://www.w3.org/Graphics/SVG/1.1/DTD/svg11.dtd">
<svg version="1.1" id="Layer_1" xmlns="http://www.w3.org/2000/svg" xmlns:xlink="http://www.w3.org/1999/xlink" x="0px" y="0px"
	 width="132px" height="131.75px" viewBox="0 0 132 131.75" enable-background="new 0 0 132 131.75" xml:space="preserve">
<g>
	<circle fill-rule="evenodd" clip-rule="evenodd" fill="#E6F1ED" cx="65.717" cy="66.52" r="63.376"/>
	<g>
		<path fill="#FFFFFF" d="M91.087,47.889h8c0.552,0,1-0.447,1-1s-0.448-1-1-1h-8c-0.553,0-1,0.447-1,1S90.534,47.889,91.087,47.889z
			"/>
		<path fill="#FFFFFF" d="M125.639,45.889h-4.552c-0.553,0-1,0.447-1,1s0.447,1,1,1h5.217
			C126.097,47.215,125.867,46.553,125.639,45.889z"/>
		<path fill="#FFFFFF" d="M116.087,46.889c0-0.553-0.448-1-1-1h-12c-0.553,0-1,0.447-1,1s0.447,1,1,1h12
			C115.639,47.889,116.087,47.441,116.087,46.889z"/>
	</g>
	<path fill="#FFFFFF" d="M114.782,67.271h1.789c0.552,0,1-0.447,1-1s-0.448-1-1-1h-1.789c-0.555,0-1,0.447-1,1
		S114.228,67.271,114.782,67.271z M102.782,67.271h8c0.55,0,1-0.447,1-1s-0.45-1-1-1h-8c-0.555,0-1,0.447-1,1
		S102.228,67.271,102.782,67.271z M84.782,67.271h12c0.55,0,1-0.447,1-1s-0.45-1-1-1h-12c-0.555,0-1,0.447-1,1
		S84.228,67.271,84.782,67.271z M72.782,67.271h8c0.553,0,1-0.447,1-1s-0.447-1-1-1h-8c-0.553,0-1,0.447-1,1
		S72.229,67.271,72.782,67.271z"/>
	<g>
		<path fill="#FFFFFF" d="M37.56,37.12c0.553,0,1-0.447,1-1c0-0.552-0.447-1-1-1h-8c-0.553,0-1,0.448-1,1c0,0.553,0.447,1,1,1H37.56
			z"/>
		<path fill="#FFFFFF" d="M24.56,36.12c0-0.552-0.447-1-1-1h-12c-0.553,0-1,0.448-1,1c0,0.553,0.447,1,1,1h12
			C24.112,37.12,24.56,36.673,24.56,36.12z"/>
		<path fill="#FFFFFF" d="M43.349,35.12H41.56c-0.553,0-1,0.448-1,1c0,0.553,0.447,1,1,1h1.789c0.552,0,1-0.447,1-1
			C44.349,35.568,43.9,35.12,43.349,35.12z"/>
	</g>
	<g>
		<path fill="#FFFFFF" d="M32.939,17.738h8c0.552,0,1-0.447,1-1c0-0.552-0.448-1-1-1h-8c-0.553,0-1,0.448-1,1
			C31.939,17.291,32.387,17.738,32.939,17.738z"/>
		<path fill="#FFFFFF" d="M44.939,15.738c-0.553,0-1,0.448-1,1c0,0.553,0.447,1,1,1h12c0.552,0,1-0.447,1-1c0-0.552-0.448-1-1-1
			H44.939z"/>
		<path fill="#FFFFFF" d="M76.729,15.738h-1.79c-0.553,0-1,0.448-1,1c0,0.553,0.447,1,1,1h1.79c0.553,0,1.001-0.447,1.001-1
			C77.73,16.187,77.282,15.738,76.729,15.738z"/>
		<path fill="#FFFFFF" d="M71.939,16.738c0-0.552-0.448-1-1-1h-8c-0.553,0-1,0.448-1,1c0,0.553,0.447,1,1,1h8
			C71.491,17.738,71.939,17.291,71.939,16.738z"/>
	</g>
	<g>
		<path fill="#FFFFFF" d="M9.25,84.5h8c0.553,0,1-0.447,1-1c0-0.552-0.447-1-1-1h-8c-0.552,0-1,0.448-1,1
			C8.25,84.053,8.698,84.5,9.25,84.5z"/>
		<path fill="#FFFFFF" d="M33.25,84.5c0.553,0,1-0.447,1-1c0-0.552-0.447-1-1-1h-12c-0.552,0-1,0.448-1,1c0,0.553,0.448,1,1,1H33.25
			z"/>
		<path fill="#FFFFFF" d="M53.039,82.5H51.25c-0.552,0-1,0.448-1,1c0,0.553,0.448,1,1,1h1.789c0.553,0,1-0.447,1-1
			C54.039,82.948,53.592,82.5,53.039,82.5z"/>
		<path fill="#FFFFFF" d="M47.25,84.5c0.553,0,1-0.447,1-1c0-0.552-0.447-1-1-1h-8c-0.552,0-1,0.448-1,1c0,0.553,0.448,1,1,1H47.25z
			"/>
	</g>
	<g>
		<path fill="#FFFFFF" d="M78.25,116.5c-0.552,0-1,0.448-1,1c0,0.553,0.448,1,1,1h12c0.553,0,1-0.447,1-1c0-0.552-0.447-1-1-1H78.25
			z"/>
		<path fill="#FFFFFF" d="M74.25,118.5c0.553,0,1-0.447,1-1c0-0.552-0.447-1-1-1h-8c-0.552,0-1,0.448-1,1c0,0.553,0.448,1,1,1H74.25
			z"/>
		<path fill="#FFFFFF" d="M104.25,116.5h-8c-0.552,0-1,0.448-1,1c0,0.553,0.448,1,1,1h5.705c0.892-0.622,1.765-1.268,2.621-1.935
			C104.473,116.529,104.366,116.5,104.25,116.5z"/>
	</g>
	<g>
		<path fill="#FFFFFF" d="M27.555,98.498h8c0.553,0,1-0.448,1-1c0-0.553-0.447-1-1-1h-8c-0.552,0-1,0.447-1,1
			C26.555,98.05,27.003,98.498,27.555,98.498z"/>
		<path fill="#FFFFFF" d="M71.346,96.498h-1.791c-0.552,0-1,0.447-1,1c0,0.552,0.448,1,1,1h1.791c0.553,0,1-0.448,1-1
			C72.346,96.945,71.898,96.498,71.346,96.498z"/>
		<path fill="#FFFFFF" d="M39.555,96.498c-0.552,0-1,0.447-1,1c0,0.552,0.448,1,1,1h12c0.553,0,1-0.448,1-1c0-0.553-0.447-1-1-1
			H39.555z"/>
		<path fill="#FFFFFF" d="M66.555,97.498c0-0.553-0.447-1-1-1h-8c-0.552,0-1,0.447-1,1c0,0.552,0.448,1,1,1h8
			C66.107,98.498,66.555,98.05,66.555,97.498z"/>
	</g>
	<g>
		<path fill="#FFFFFF" d="M68.116,7.125h-1.791c-0.552,0-1,0.448-1,1c0,0.553,0.448,1,1,1h1.791c0.553,0,1-0.447,1-1
			C69.116,7.573,68.669,7.125,68.116,7.125z"/>
		<path fill="#FFFFFF" d="M54.325,7.125c-0.552,0-1,0.448-1,1c0,0.553,0.448,1,1,1h8c0.553,0,1-0.447,1-1c0-0.552-0.447-1-1-1
			H54.325z"/>
		<path fill="#FFFFFF" d="M48.325,9.125c0.553,0,1-0.447,1-1c0-0.552-0.447-1-1-1h-4.744c-1.615,0.603-3.197,1.272-4.747,2H48.325z"
			/>
	</g>
	<path fill-rule="evenodd" clip-rule="evenodd" fill="#FFFFFF" d="M120.593,34.832c-5.316-9.187-12.858-16.922-21.907-22.445H67.875
		c-6.197,0-11.223,5.024-11.223,11.223c0,6.197,5.025,11.223,11.223,11.223H120.593z"/>
	<path fill-rule="evenodd" clip-rule="evenodd" fill="#FFFFFF" d="M54.012,46.716H5.515c-2.049,6.233-3.173,12.886-3.173,19.805
		c0,0.886,0.031,1.764,0.066,2.641h51.604c6.2,0,11.223-5.024,11.223-11.223C65.234,51.741,60.212,46.716,54.012,46.716z"/>
	<path fill-rule="evenodd" clip-rule="evenodd" fill="#FFFFFF" d="M128.581,74.443H81.08c-6.198,0-11.223,5.024-11.223,11.223
		c0,6.197,5.024,11.223,11.223,11.223h40.271C125.08,90.071,127.577,82.49,128.581,74.443z"/>
</g>
<g>
	<path opacity="0.2" fill-rule="evenodd" clip-rule="evenodd" fill="#49A284" d="M30.725,92.891c-13.343,0-24.16-2.285-24.16-5.348
		c0-0.009,0.006-0.019,0.006-0.027c0-0.002-0.006-0.005-0.006-0.007c0-5.68,4.422-9.743,6.543-10.744
		c2.118-1,6.761-2.399,8.677-3.601c1.917-1.198,2.546-1.699,2.546-1.699s0.012,0.154,0.058,0.401v-2.542
		c-1.366-1.787-2.401-4.132-2.968-6.799c-0.016,0.004-0.024,0.022-0.039,0.027c-0.915,0.244-2.037-0.966-2.506-2.701
		c-0.469-1.733-0.107-3.336,0.808-3.58c0.056-0.014,0.117,0.02,0.173,0.016c-0.146-1.919-0.333-4.533-0.333-5.325
		c0-1.302-0.201-2.401,1.514-4.7c1.716-2.303,3.129-1.402,3.129-1.402s1.11-1.102,2.118-1.602c1.01-0.501,3.432-1.75,7.871-0.45
		c4.44,1.302,6.155,1.853,7.266,6.853c0.641,2.884,0.538,5.173,0.341,6.619c0.034,0.004,0.071-0.016,0.105-0.008
		c0.915,0.244,1.275,1.847,0.808,3.58c-0.461,1.703-1.549,2.891-2.453,2.705c-0.598,2.799-1.711,5.244-3.182,7.057v2.008
		c0.013-0.094,0.02-0.156,0.02-0.156s0.629,0.501,2.546,1.699c1.916,1.201,6.559,2.601,8.677,3.601
		c2.066,0.976,6.293,4.876,6.504,10.332c0.053,0.148,0.1,0.297,0.1,0.446C54.885,90.605,44.066,92.891,30.725,92.891z"/>
	<path fill-rule="evenodd" clip-rule="evenodd" fill="#F2F2F2" d="M27.812,91.726c-13.344,0-24.159-2.284-24.159-5.346
		c0-0.011,0.005-0.019,0.005-0.029c0-0.001-0.006-0.005-0.006-0.007c0-5.68,4.424-9.743,6.543-10.742
		c2.119-1,6.761-2.401,8.678-3.601c1.918-1.2,2.547-1.701,2.547-1.701s0.012,0.155,0.056,0.402V68.16
		c-1.364-1.787-2.401-4.133-2.966-6.8c-0.016,0.005-0.024,0.024-0.04,0.027c-0.915,0.243-2.036-0.966-2.505-2.699
		c-0.471-1.733-0.107-3.336,0.807-3.579c0.057-0.016,0.118,0.018,0.174,0.014c-0.146-1.92-0.334-4.532-0.334-5.326
		c0-1.301-0.2-2.401,1.515-4.7c1.715-2.301,3.128-1.399,3.128-1.399s1.109-1.104,2.119-1.605c1.01-0.498,3.432-1.748,7.871-0.447
		c4.439,1.299,6.154,1.852,7.266,6.852c0.641,2.883,0.537,5.172,0.34,6.617c0.035,0.006,0.07-0.014,0.104-0.004
		c0.916,0.243,1.277,1.846,0.809,3.579c-0.46,1.701-1.548,2.888-2.452,2.702c-0.6,2.801-1.711,5.246-3.182,7.059v2.007
		c0.012-0.094,0.02-0.156,0.02-0.156s0.628,0.501,2.544,1.701c1.917,1.199,6.56,2.601,8.679,3.601
		c2.065,0.974,6.293,4.874,6.504,10.332c0.051,0.146,0.099,0.295,0.099,0.446C51.974,89.441,41.156,91.726,27.812,91.726z"/>
	<path fill-rule="evenodd" clip-rule="evenodd" fill="#FFFFFF" d="M43.838,74.959c-2.334-0.91-5.611-1.998-7.146-2.958
		c-0.12-0.075-0.22-0.14-0.331-0.209c-0.924-0.381-1.747-0.759-2.322-1.119c-1.918-1.199-2.546-1.7-2.546-1.7
		s-0.005,0.063-0.019,0.157v-2.008c1.471-1.812,2.583-4.258,3.181-7.058c0.906,0.186,1.993-1.002,2.454-2.703
		c0.469-1.733,0.105-3.338-0.809-3.579c-0.034-0.009-0.07,0.011-0.104,0.005c0.197-1.445,0.297-3.734-0.342-6.617
		c-0.563-2.541-1.286-3.932-2.441-4.856c-0.641-0.22-1.359-0.432-2.17-0.669c-4.439-1.301-6.861-0.051-7.871,0.447
		c-1.01,0.502-2.119,1.605-2.119,1.605s-1.413-0.901-3.128,1.399c-1.715,2.299-1.515,3.399-1.515,4.7
		c0,0.794,0.188,3.406,0.334,5.326c-0.056,0.004-0.117-0.029-0.174-0.014c-0.914,0.243-1.277,1.846-0.807,3.579
		c0.469,1.733,1.59,2.942,2.505,2.699c0.016-0.003,0.024-0.022,0.04-0.027c0.564,2.667,1.602,5.013,2.966,6.8v2.542
		C21.432,70.455,21.42,70.3,21.42,70.3s-0.629,0.501-2.547,1.701c-1.917,1.199-6.559,2.601-8.678,3.601
		c-2.119,0.999-6.543,5.062-6.543,10.742c0,0.002,0.006,0.006,0.006,0.007c0,0.011-0.005,0.019-0.005,0.029
		c0,0.538,0.341,1.053,0.966,1.534c4.26,1.519,11.863,2.485,20.54,2.485c13.343,0,24.161-2.286,24.161-5.348
		c0-0.15-0.048-0.299-0.099-0.444C49.043,80.012,46.022,76.529,43.838,74.959z"/>
	<path fill-rule="evenodd" clip-rule="evenodd" fill="#F2F2F2" d="M14.75,74.25c0,0,2.605,6.294,12.914,6.294
		c10.307,0,13.495-6.908,13.495-6.908s11.158-1.17,12.009,2.231c0.85,3.4-1.855,13.977-2.918,14.508S24.375,92.125,19,91.75
		c-4.499-0.313-13.869-1.948-15.25-4.5c-1.381-2.551,1.744-7.475,3.125-8.75c1.381-1.276,1.301-3,3-3S14.75,74.25,14.75,74.25z"/>
	<path fill="#FFFFFF" d="M9.746,85.093l0.002-0.007c-0.002-0.006,1.197-2.442,1.51-2.892c-0.01-0.017,0.01-0.013,0.248-0.159
		c0.75-0.521,2.181-1.199,2.181-1.203c0.805-0.379,1.15-1.337,0.772-2.142c-0.381-0.805-1.338-1.149-2.143-0.771
		c-0.137,0.164-2.471,0.938-3.736,2.49c-0.611,0.938-1.701,3.23-1.729,3.274L6.85,83.69c-0.389,0.801-0.054,1.762,0.746,2.15
		C8.396,86.227,9.357,85.893,9.746,85.093z"/>
	<path d="M20.326,51.752c3.834-0.579,4.5-3.358,4.469-3.574l-0.991-0.128l-0.589,0.808c0.058,0.031,3.038,2.232,6.518,3.075
		c2.505,0.6,4.555,0.77,6.07,0.77c1.913,0,2.978-0.271,3.051-0.289l-0.506-1.935c-0.002,0-0.82,0.223-2.545,0.223
		c-1.367,0-3.258-0.153-5.605-0.713c-2.96-0.697-5.789-2.76-5.805-2.748c-0.285-0.207-0.658-0.25-0.984-0.11
		c-0.324,0.142-0.55,0.439-0.596,0.79c-0.062-0.005,0.072,1.342-2.809,1.858L20.326,51.752z"/>
	<path d="M27.812,91.726v-1c-6.613,0-12.601-0.568-16.87-1.502c-4.354-0.815-6.357-2.496-6.289-2.844l0.007-0.009l-0.006-0.105
		l-0.905,0.078h0.904l0.001-0.078l-0.905,0.078h0.904c-0.063-5.115,4.177-9.029,5.969-9.838c2.001-0.957,6.625-2.328,8.782-3.656
		c1.94-1.217,2.596-1.734,2.637-1.767L21.42,70.3l-0.996,0.082c0.001,0.027,0.017,0.211,0.069,0.497
		c0.092,0.511,0.556,0.865,1.073,0.819c0.516-0.046,0.91-0.478,0.91-0.996V68.16l-0.205-0.607c-1.259-1.645-2.246-3.859-2.785-6.4
		c-0.058-0.275-0.229-0.512-0.473-0.655c-0.244-0.144-0.533-0.175-0.803-0.092l0.14,0.451l-0.099-0.444l-0.041-0.007l0.14,0.451
		l-0.099-0.444l-0.039,0.008l0.018,0.062v-0.063l-0.018,0.001l0.018,0.062v-0.063c-0.038,0.009-0.988-0.604-1.302-1.991
		c-0.116-0.434-0.171-0.854-0.171-1.217c-0.018-0.924,0.278-1.105,0.271-1.135l0.002-0.002l-0.227-0.846v0.877
		c0.058,0,0.138-0.008,0.227-0.031l-0.227-0.846v0.877l0.131,0.018l0.071-0.003c0.266-0.015,0.519-0.14,0.693-0.341
		s0.264-0.467,0.243-0.732c-0.146-1.903-0.334-4.555-0.332-5.25c0-0.268-0.007-0.508-0.007-0.73
		c0.024-0.926,0.034-1.596,1.323-3.372c0.854-1.117,1.375-1.158,1.604-1.171l0.186,0.016l1.242-0.134
		c-0.003-0.009,1.078-1.044,1.858-1.415c0.678-0.332,1.776-0.91,3.745-0.92c0.932,0,2.054,0.14,3.4,0.533
		c4.519,1.459,5.37,1.367,6.57,6.11C37.885,50.298,38,51.686,38,52.838c0,0.849-0.062,1.567-0.141,2.142
		c-0.075,0.545,0.301,1.044,0.844,1.124l0.158,0.012l0.074-0.008V55.18l-0.24,0.895c0.096,0.025,0.179,0.033,0.24,0.033V55.18
		l-0.24,0.895l0.003,0.002c0.022,0,0.288,0.211,0.27,1.135c0,0.363-0.054,0.783-0.171,1.217c-0.312,1.387-1.285,1.984-1.297,1.982
		v0.055l0.01-0.053L37.5,60.41v0.055l0.01-0.053c-0.538-0.109-1.062,0.233-1.179,0.771c-0.569,2.667-1.63,4.975-2.979,6.635
		l-0.224,0.631v2.007c0,0.528,0.408,0.964,0.934,0.998c0.528,0.034,0.988-0.344,1.059-0.866l0.021-0.191L34.148,70.3l-0.623,0.783
		c0.04,0.032,0.697,0.55,2.637,1.765c2.156,1.33,6.78,2.701,8.781,3.658c1.737,0.781,5.799,4.542,5.932,9.465l0.057,0.292
		l0.043,0.117c0.067,0.348-1.938,2.028-6.291,2.844c-4.269,0.934-10.258,1.502-16.871,1.502V91.726v1
		c13.481-0.343,24.256-1.495,25.16-6.346c-0.003-0.363-0.1-0.611-0.152-0.775l-0.945,0.329l1-0.039
		c-0.291-5.991-4.681-10.031-7.076-11.197c-2.238-1.043-6.897-2.475-8.575-3.544c-1.896-1.186-2.448-1.639-2.454-1.635
		c-0.287-0.229-0.674-0.281-1.014-0.139c-0.337,0.144-0.568,0.458-0.604,0.824l-0.014,0.121l0.99,0.131h1v-2.007h-1l0.777,0.63
		c1.59-1.964,2.754-4.548,3.382-7.479l-0.978-0.21l-0.201,0.981c0.129,0.026,0.261,0.039,0.391,0.039
		c1.75-0.14,2.684-1.679,3.229-3.462c0.16-0.596,0.238-1.184,0.238-1.738c-0.018-1.254-0.354-2.607-1.756-3.069l0.002,0.001
		c-0.107-0.028-0.205-0.037-0.277-0.037l-0.074,0.01v0.918l0.135-0.907l-0.135-0.011v0.918l0.135-0.907l-0.146,0.987l0.992,0.137
		C39.93,54.596,40,53.785,40,52.838c0-1.285-0.13-2.822-0.515-4.559c-1.021-5.259-3.601-6.454-7.96-7.596
		c-1.514-0.442-2.832-0.613-3.963-0.613c-2.376-0.008-3.944,0.781-4.635,1.127c-1.237,0.628-2.336,1.759-2.379,1.789l0.705,0.711
		l0.537-0.846c-0.103-0.062-0.547-0.326-1.26-0.33c-0.924-0.012-2.137,0.513-3.207,1.978c-1.488,1.946-1.744,3.429-1.719,4.567
		c0,0.262,0.007,0.502,0.007,0.73c0.001,0.891,0.188,3.464,0.337,5.402l0.996-0.076l-0.061-0.998l0.051,0.839v-0.841l-0.051,0.002
		l0.051,0.839v-0.841l-0.131-0.02c-0.08,0-0.181,0.009-0.291,0.039l0.003-0.001c-1.403,0.463-1.739,1.815-1.758,3.069
		c0,0.555,0.079,1.143,0.24,1.738c0.545,1.783,1.476,3.328,3.231,3.469c0.162,0,0.332-0.02,0.496-0.064l-0.257-0.966l0.218,0.976
		l0.119-0.049L18.51,61.36l-0.98,0.208c0.595,2.793,1.68,5.27,3.152,7.198l0.794-0.606h-0.999v2.542h0.999l0.984-0.178
		c-0.037-0.209-0.04-0.305-0.044-0.305c-0.031-0.369-0.26-0.689-0.6-0.836c-0.339-0.148-0.73-0.096-1.02,0.135
		c-0.002,0.001-0.559,0.449-2.453,1.635c-1.68,1.069-6.338,2.501-8.574,3.544c-2.447,1.191-7.055,5.403-7.117,11.646l0.01,0.094
		l0.996-0.087l-1-0.021l-0.004,0.05c0.902,4.851,11.679,6.003,25.158,6.346V91.726z"/>
	<path d="M16.951,73.5l0.003,0.008c0.052,0.213,2.479,5.043,10.642,5.013c8.201,0.019,10.908-5.135,10.961-5.315l-1.797-0.877
		c-0.031-0.007-1.883,4.174-9.164,4.192c-7.317-0.03-8.728-3.865-8.817-3.833l-0.005-0.011L16.951,73.5z"/>
	<path d="M13.783,74.885l0.004,0.008c0.051,0.213,3.116,6.462,13.758,6.43c10.68,0.019,14.131-6.659,14.184-6.838l-1.797-0.879
		c-0.033-0.004-2.627,5.698-12.387,5.717c-9.795-0.03-11.841-5.281-11.935-5.25l-0.003-0.009L13.783,74.885z"/>
	<polyline points="13.289,90.432 15.059,84.901 13.154,84.292 11.385,89.821 	"/>
	<path opacity="0.2" fill-rule="evenodd" clip-rule="evenodd" fill="#49A284" d="M102.438,92.527
		c-14.07,0-25.476-2.409-25.476-5.639c0-0.008,0.005-0.019,0.005-0.028c0-0.002-0.006-0.006-0.006-0.007
		c0-5.99,4.664-10.274,6.9-11.329c2.234-1.054,7.129-2.532,9.15-3.796c2.021-1.267,2.684-1.793,2.684-1.793s0.014,0.161,0.06,0.422
		v-2.68c-1.438-1.885-2.53-4.357-3.128-7.17c-0.016,0.005-0.025,0.025-0.041,0.028c-0.966,0.257-2.147-1.019-2.644-2.846
		c-0.493-1.829-0.112-3.519,0.854-3.775c0.058-0.016,0.123,0.019,0.183,0.015c-0.153-2.024-0.352-4.778-0.352-5.616
		c0-1.37-0.213-2.53,1.596-4.958c1.809-2.424,3.299-1.475,3.299-1.475s1.17-1.162,2.234-1.69c1.064-0.526,3.617-1.845,8.299-0.474
		c4.684,1.371,6.492,1.953,7.662,7.227c0.675,3.039,0.567,5.454,0.359,6.979c0.036,0.005,0.075-0.016,0.11-0.007
		c0.965,0.257,1.346,1.946,0.852,3.775c-0.485,1.794-1.631,3.045-2.587,2.851c-0.63,2.951-1.803,5.531-3.353,7.441v2.116
		c0.012-0.099,0.019-0.163,0.019-0.163s0.662,0.526,2.684,1.793c2.021,1.264,6.918,2.742,9.152,3.796
		c2.178,1.029,6.633,5.14,6.858,10.895c0.054,0.155,0.104,0.312,0.104,0.47C127.915,90.118,116.508,92.527,102.438,92.527z"/>
	<path fill-rule="evenodd" clip-rule="evenodd" fill="#F2F2F2" d="M99.369,91.3c-14.07,0-25.478-2.41-25.478-5.639
		c0-0.01,0.007-0.019,0.007-0.029c0-0.001-0.007-0.005-0.007-0.007c0-5.989,4.665-10.274,6.899-11.328
		c2.234-1.056,7.129-2.531,9.151-3.798c2.021-1.266,2.685-1.792,2.685-1.792s0.012,0.162,0.06,0.423v-2.681
		c-1.439-1.883-2.532-4.356-3.131-7.17c-0.015,0.006-0.023,0.025-0.039,0.029c-0.966,0.257-2.149-1.019-2.643-2.846
		c-0.494-1.829-0.112-3.519,0.852-3.775c0.06-0.016,0.122,0.02,0.184,0.015c-0.155-2.024-0.353-4.778-0.353-5.616
		c0-1.371-0.213-2.531,1.596-4.956c1.811-2.427,3.299-1.477,3.299-1.477s1.17-1.163,2.234-1.69s3.619-1.845,8.301-0.475
		c4.682,1.371,6.49,1.954,7.662,7.227c0.674,3.04,0.566,5.453,0.357,6.979c0.037,0.006,0.075-0.015,0.11-0.006
		c0.966,0.257,1.348,1.946,0.854,3.775c-0.485,1.793-1.633,3.045-2.587,2.851c-0.63,2.951-1.804,5.53-3.355,7.44v2.119
		c0.014-0.101,0.021-0.166,0.021-0.166s0.663,0.526,2.685,1.792c2.021,1.267,6.916,2.742,9.15,3.798
		c2.178,1.028,6.635,5.14,6.857,10.895c0.055,0.156,0.104,0.312,0.104,0.47C124.845,88.89,113.439,91.3,99.369,91.3z"/>
	<path fill-rule="evenodd" clip-rule="evenodd" fill="#FFFFFF" d="M116.267,73.618c-2.462-0.959-5.917-2.105-7.534-3.119
		c-0.124-0.077-0.227-0.144-0.341-0.216c-0.978-0.401-1.849-0.802-2.457-1.183c-2.021-1.265-2.685-1.793-2.685-1.793
		s-0.007,0.066-0.021,0.165v-2.117c1.552-1.91,2.724-4.49,3.355-7.441c0.953,0.195,2.102-1.057,2.585-2.852
		c0.495-1.827,0.114-3.518-0.852-3.773c-0.036-0.01-0.073,0.012-0.11,0.005c0.209-1.524,0.316-3.938-0.359-6.978
		c-0.595-2.682-1.356-4.146-2.575-5.123c-0.677-0.23-1.433-0.455-2.287-0.705c-4.682-1.37-7.236-0.053-8.301,0.475
		s-2.234,1.69-2.234,1.69s-1.488-0.95-3.299,1.477c-1.809,2.425-1.596,3.585-1.596,4.956c0,0.838,0.197,3.592,0.353,5.616
		c-0.062,0.005-0.124-0.03-0.184-0.015c-0.964,0.257-1.346,1.946-0.852,3.775c0.493,1.827,1.677,3.103,2.643,2.846
		c0.016-0.004,0.024-0.023,0.039-0.029c0.599,2.813,1.691,5.287,3.131,7.17v2.681c-0.048-0.261-0.06-0.423-0.06-0.423
		s-0.663,0.526-2.685,1.792c-2.022,1.267-6.917,2.742-9.151,3.798c-2.234,1.054-6.899,5.339-6.899,11.328
		c0,0.002,0.007,0.006,0.007,0.007c0,0.011-0.007,0.02-0.007,0.029c0,0.569,0.361,1.112,1.023,1.622
		c4.493,1.6,12.51,2.618,21.656,2.618c14.068,0,25.476-2.409,25.476-5.639c0-0.16-0.05-0.314-0.104-0.47
		C121.755,78.947,118.569,75.275,116.267,73.618z"/>
	<path fill-rule="evenodd" clip-rule="evenodd" fill="#FA5A6D" d="M85.5,72.5c0,0,2.842,7.008,13.711,7.008
		c10.87,0,14.231-7.283,14.231-7.283s7.277,3.082,9.141,6.275c1.75,3,2.454,7.192,1.667,8.167c-3.5,4.333-29.657,6.233-34.25,5
		c-4.595-1.23-17.569,1.4-19.025-1.288c-1.456-2.689-1.456-8.965,0-10.311s6.607-4.943,8.4-4.943S85.5,72.5,85.5,72.5z"/>
	<path d="M91.465,49.096c4.016-0.609,4.697-3.507,4.668-3.723l-0.992-0.13l-0.588,0.81c0.057,0.031,3.196,2.348,6.854,3.233
		c2.636,0.63,4.794,0.81,6.39,0.81c2.009,0,3.128-0.285,3.201-0.304l-0.506-1.935c-0.003,0-0.875,0.238-2.695,0.238
		c-1.448-0.002-3.445-0.162-5.925-0.754c-3.138-0.74-6.125-2.918-6.142-2.906c-0.286-0.209-0.659-0.25-0.984-0.11
		s-0.55,0.439-0.596,0.79c-0.063-0.007,0.056,1.459-3.006,2.006L91.465,49.096z"/>
	<path d="M99.369,91.3v-1c-6.978,0.002-13.294-0.601-17.802-1.585c-4.594-0.867-6.762-2.626-6.675-3.054l0.006-0.01l-0.004-0.103
		l-0.906,0.076h0.903l0.003-0.076l-0.906,0.076h0.903c-0.062-5.426,4.419-9.561,6.326-10.424c2.117-1.012,6.993-2.458,9.255-3.854
		c2.045-1.278,2.734-1.823,2.775-1.855l-0.621-0.784l-0.998,0.082c0.003,0.025,0.021,0.22,0.073,0.518
		c0.092,0.511,0.557,0.865,1.072,0.819c0.519-0.046,0.911-0.477,0.911-0.996v-2.681l-0.204-0.606
		c-1.333-1.742-2.377-4.083-2.946-6.771c-0.06-0.276-0.233-0.517-0.479-0.658c-0.243-0.141-0.54-0.174-0.809-0.086l0.035,0.109
		l-0.025-0.095l-0.01-0.015l0.035,0.109l-0.025-0.095h0.002l0.003,0.012v-0.013l-0.003,0.001l0.003,0.012v-0.013
		c-0.053,0.012-1.088-0.668-1.423-2.14c-0.127-0.462-0.183-0.907-0.183-1.298c-0.019-0.982,0.33-1.229,0.325-1.25l0.01-0.004
		L87.76,52.81v0.874c0.061,0,0.143-0.008,0.232-0.033L87.76,52.81v0.874l0.14,0.02c0-0.001,0.073-0.003,0.073-0.003
		c0.266-0.017,0.516-0.14,0.691-0.343c0.175-0.2,0.262-0.465,0.241-0.731c-0.153-2.007-0.351-4.802-0.349-5.54
		c0-0.281-0.007-0.535-0.007-0.77c0.023-0.982,0.041-1.712,1.404-3.589c0.906-1.187,1.476-1.245,1.736-1.257
		c0.212-0.004,0.195,0.072,0.225,0.025l1.241-0.135c-0.002-0.008,1.14-1.104,1.974-1.504c0.716-0.349,1.887-0.963,3.974-0.974
		c0.987,0.002,2.176,0.148,3.602,0.565c4.762,1.529,5.705,1.469,6.966,6.483c0.373,1.675,0.493,3.142,0.493,4.36
		c0,0.896-0.066,1.658-0.147,2.266c-0.075,0.544,0.307,1.049,0.85,1.125l0.153,0.012l0.076-0.01v-0.924l-0.247,0.889
		c0.1,0.027,0.187,0.035,0.247,0.035v-0.924l-0.247,0.889l0.013,0.004c0.021,0.002,0.342,0.268,0.323,1.25
		c0.002,0.389-0.057,0.836-0.181,1.298c-0.337,1.472-1.365,2.144-1.422,2.13v0.002v-0.002v0.002c-0.538-0.11-1.062,0.233-1.177,0.77
		c-0.602,2.82-1.724,5.262-3.154,7.021l-0.223,0.629v2.119c0,0.527,0.407,0.962,0.935,0.998c0.526,0.033,0.988-0.345,1.056-0.869
		l0.024-0.197l-0.995-0.098l-0.623,0.784c0.041,0.032,0.732,0.577,2.776,1.855c2.262,1.396,7.139,2.843,9.256,3.854
		c1.848,0.836,6.14,4.808,6.286,10.029l0.054,0.289l0.048,0.142c0.085,0.428-2.083,2.187-6.676,3.054
		c-4.506,0.984-10.824,1.587-17.8,1.585V91.3v1c14.206-0.343,25.572-1.621,26.475-6.639c-0.003-0.368-0.102-0.627-0.158-0.799
		l-0.945,0.329l1-0.039c-0.302-6.288-4.922-10.539-7.431-11.76c-2.352-1.099-7.265-2.604-9.048-3.74
		c-1.998-1.252-2.587-1.731-2.592-1.729c-0.288-0.229-0.675-0.281-1.014-0.138c-0.337,0.144-0.568,0.46-0.604,0.824l-0.016,0.131
		l0.991,0.132h1v-2.119h-1l0.777,0.631c1.67-2.061,2.896-4.781,3.556-7.861l-0.978-0.21l-0.199,0.979
		c0.133,0.027,0.266,0.041,0.398,0.041c1.799-0.141,2.784-1.74,3.352-3.611c0.169-0.625,0.252-1.237,0.252-1.818
		c-0.019-1.312-0.375-2.713-1.812-3.183l-0.258,0.966l0.268-0.965c-0.11-0.03-0.213-0.037-0.288-0.037l-0.076,0.009v0.915
		l0.128-0.904l-0.128-0.011v0.915l0.128-0.904l-0.142,0.988l0.991,0.137c0.094-0.688,0.168-1.541,0.168-2.537
		c0-1.353-0.136-2.969-0.541-4.795c-1.081-5.533-3.755-6.758-8.356-7.968c-1.593-0.467-2.978-0.646-4.164-0.646
		c-2.493-0.009-4.134,0.817-4.86,1.182c-1.295,0.656-2.454,1.848-2.497,1.877l0.705,0.71l0.538-0.843
		c-0.103-0.064-0.562-0.338-1.299-0.341c-0.956-0.014-2.216,0.528-3.339,2.062c-1.564,2.049-1.827,3.589-1.803,4.784
		c0,0.275,0.008,0.529,0.008,0.77c0.002,0.935,0.201,3.649,0.354,5.693l0.998-0.077l-0.062-0.997l0.053,0.83v-0.832l-0.053,0.002
		l0.053,0.83v-0.832l-0.14-0.02c-0.084,0-0.188,0.009-0.3,0.039l0.266,0.965l-0.256-0.966c-1.438,0.47-1.793,1.87-1.812,3.183
		c0,0.581,0.081,1.193,0.25,1.818c0.568,1.869,1.552,3.477,3.354,3.619c0.169,0,0.341-0.021,0.51-0.066h0.002l0.092-0.044
		l-0.311-0.952l-0.978,0.208c0.625,2.939,1.767,5.544,3.314,7.569l0.794-0.607h-1v2.681h1l0.984-0.177
		c-0.041-0.222-0.046-0.327-0.048-0.327c-0.031-0.37-0.261-0.69-0.6-0.837s-0.73-0.095-1.021,0.135
		c-0.001,0.004-0.592,0.477-2.592,1.729c-1.781,1.136-6.694,2.642-9.046,3.74c-2.563,1.245-7.412,5.68-7.474,12.232l0.011,0.093
		l0.996-0.086l-1-0.019l-0.007,0.048c0.904,5.018,12.271,6.296,26.478,6.639V91.3z"/>
	<path d="M84.624,73.519l0.004,0.009c0.051,0.214,3.259,6.777,14.458,6.747c11.237,0.019,14.854-6.999,14.907-7.18l-1.797-0.877
		c-0.032-0.006-2.795,6.038-13.11,6.058c-10.353-0.031-12.541-5.6-12.635-5.569l-0.005-0.009L84.624,73.519z"/>
	<polyline points="115.955,89.308 114.088,83.478 112.185,84.088 114.049,89.917 	"/>
	<path opacity="0.2" fill-rule="evenodd" clip-rule="evenodd" fill="#49A284" d="M67.887,107.773c-22.92,0-41.5-3.924-41.5-9.187
		c0-0.015,0.011-0.03,0.011-0.046c0-0.003-0.012-0.009-0.012-0.012c0-9.757,7.599-16.735,11.239-18.454
		c3.641-1.717,11.613-4.123,14.907-6.184c3.292-2.062,4.372-2.921,4.372-2.921s0.021,0.264,0.098,0.688v-4.365
		c-2.346-3.069-4.124-7.099-5.098-11.679c-0.025,0.008-0.039,0.04-0.066,0.047c-1.572,0.418-3.498-1.658-4.305-4.637
		c-0.805-2.979-0.184-5.732,1.389-6.15c0.096-0.025,0.199,0.033,0.298,0.025c-0.252-3.299-0.573-7.785-0.573-9.148
		c0-2.234-0.346-4.123,2.6-8.076c2.947-3.951,5.373-2.404,5.373-2.404s1.908-1.894,3.642-2.752c1.731-0.86,5.893-3.006,13.519-0.773
		c7.628,2.234,10.574,3.181,12.479,11.771c1.101,4.953,0.925,8.885,0.586,11.367c0.058,0.01,0.121-0.025,0.179-0.01
		c1.572,0.418,2.193,3.172,1.389,6.15c-0.791,2.922-2.659,4.961-4.212,4.643c-1.028,4.809-2.939,9.01-5.465,12.121v3.449
		c0.021-0.162,0.032-0.268,0.032-0.268s1.078,0.858,4.371,2.921c3.294,2.061,11.268,4.467,14.907,6.184
		c3.549,1.676,10.808,8.374,11.172,17.747c0.088,0.254,0.168,0.508,0.168,0.765C109.386,103.85,90.806,107.773,67.887,107.773z"/>
	<path fill-rule="evenodd" clip-rule="evenodd" fill="#F2F2F2" d="M62.887,105.772c-22.92,0-41.5-3.924-41.5-9.185
		c0-0.016,0.011-0.031,0.011-0.046c0-0.005-0.013-0.011-0.013-0.014c0-9.757,7.6-16.735,11.24-18.452
		c3.64-1.719,11.613-4.123,14.907-6.186c3.292-2.061,4.372-2.921,4.372-2.921s0.021,0.266,0.098,0.689v-4.364
		c-2.345-3.069-4.124-7.099-5.098-11.682c-0.026,0.009-0.039,0.041-0.066,0.048c-1.572,0.417-3.498-1.659-4.305-4.638
		c-0.805-2.979-0.184-5.73,1.389-6.147c0.096-0.027,0.199,0.03,0.298,0.024c-0.251-3.299-0.573-7.787-0.573-9.149
		c0-2.232-0.347-4.123,2.6-8.074c2.946-3.951,5.373-2.404,5.373-2.404s1.908-1.894,3.641-2.752c1.732-0.86,5.893-3.006,13.52-0.773
		c7.628,2.232,10.574,3.181,12.479,11.771c1.101,4.952,0.925,8.883,0.586,11.368c0.058,0.008,0.121-0.027,0.179-0.011
		c1.572,0.417,2.193,3.169,1.388,6.147c-0.79,2.923-2.656,4.961-4.211,4.645c-1.029,4.81-2.939,9.01-5.465,12.122v3.449
		c0.021-0.162,0.032-0.27,0.032-0.27s1.078,0.86,4.371,2.921c3.294,2.062,11.268,4.467,14.907,6.186
		c3.549,1.674,10.807,8.372,11.172,17.745c0.088,0.254,0.168,0.508,0.168,0.767C104.386,101.849,85.806,105.772,62.887,105.772z"/>
	<path fill-rule="evenodd" clip-rule="evenodd" fill="#FFFFFF" d="M90.413,76.972c-4.011-1.562-9.639-3.431-12.274-5.081
		c-0.204-0.127-0.374-0.236-0.561-0.354c-1.591-0.654-3.008-1.305-3.998-1.925c-3.292-2.062-4.372-2.92-4.372-2.92
		s-0.01,0.107-0.032,0.269v-3.448c2.527-3.113,4.438-7.314,5.465-12.123c1.555,0.317,3.424-1.721,4.214-4.644
		c0.806-2.979,0.184-5.732-1.389-6.149c-0.06-0.016-0.12,0.021-0.18,0.012c0.34-2.484,0.514-6.417-0.585-11.367
		c-0.97-4.367-2.212-6.756-4.197-8.346c-1.102-0.375-2.333-0.74-3.725-1.147c-7.627-2.233-11.787-0.087-13.52,0.773
		c-1.732,0.858-3.641,2.752-3.641,2.752s-2.427-1.546-5.373,2.404c-2.946,3.951-2.6,5.842-2.6,8.074
		c0,1.362,0.322,5.851,0.573,9.149c-0.099,0.006-0.202-0.052-0.298-0.024c-1.572,0.417-2.193,3.169-1.389,6.147
		c0.807,2.979,2.732,5.055,4.305,4.638c0.027-0.007,0.04-0.039,0.066-0.048c0.974,4.583,2.753,8.612,5.098,11.682v4.364
		c-0.076-0.424-0.098-0.689-0.098-0.689s-1.08,0.86-4.372,2.921c-3.294,2.062-11.268,4.467-14.907,6.186
		c-3.641,1.717-11.24,8.695-11.24,18.452c0,0.003,0.013,0.009,0.013,0.014c0,0.015-0.011,0.03-0.011,0.046
		c0,0.927,0.588,1.811,1.662,2.64c7.32,2.606,20.38,4.266,35.28,4.266c22.918,0,41.5-3.924,41.5-9.184
		c0-0.26-0.082-0.513-0.169-0.767C99.354,85.65,94.165,79.67,90.413,76.972z"/>
	<path fill-rule="evenodd" clip-rule="evenodd" fill="#49A284" d="M39.875,75.25c0,0,5.051,11.315,22.756,11.315
		s23.181-11.867,23.181-11.867s10.753,5.196,14.313,10.052c2.75,3.75,5.45,12.461,3.625,13.375
		c-1.826,0.911-10.875,11.25-64.25,5.875c-7.709-0.776-16.375-3.375-17.375-5.75c-1.934-4.591,1.378-12.186,3.75-14.375
		c2.373-2.192,5.148-4.577,7.625-6.125C36.5,75.875,39.875,75.25,39.875,75.25z"/>
	<path fill="#76D2B3" d="M29.328,94.228l0.004-0.011c-0.004-0.008,2.518-5.163,3.318-6.342c-0.012-0.412,5.773-3.386,5.769-3.413
		c1-0.47,1.429-1.66,0.958-2.66c-0.471-0.999-1.661-1.429-2.66-0.959c-0.171,0.205-5.41,2.266-7.394,4.813
		c-1.173,1.784-3.558,6.765-3.592,6.818l-0.005,0.011c-0.48,0.993-0.064,2.189,0.93,2.67C27.65,95.638,28.847,95.222,29.328,94.228z
		"/>
	<path d="M49.911,36.404c6.243-0.975,7.108-5.311,7.081-5.526L56,30.75l-0.588,0.808c0.057,0.032,5.146,3.771,10.938,5.165
		c4.247,1.016,7.711,1.301,10.263,1.301c3.215,0,4.982-0.453,5.056-0.473l-0.506-1.936c-0.003,0.002-1.523,0.408-4.55,0.408
		c-2.403,0-5.707-0.268-9.798-1.246c-5.272-1.248-10.212-4.852-10.227-4.836c-0.286-0.208-0.659-0.25-0.984-0.111
		c-0.325,0.141-0.55,0.439-0.597,0.791c-0.062-0.004-0.129,2.898-5.418,3.81L49.911,36.404z"/>
	<path d="M62.887,105.772v-1c-11.4,0.002-21.725-0.979-29.131-2.597c-7.492-1.499-11.66-4.189-11.369-5.588l0.01-0.032l-0.001-0.084
		l-0.817,0.057h0.807l0.011-0.057l-0.817,0.057h0.807c-0.061-9.191,7.354-16.022,10.666-17.548
		c3.523-1.676,11.479-4.05,15.011-6.242c3.315-2.076,4.423-2.953,4.466-2.985l-0.623-0.783l-0.996,0.082
		c0.001,0.027,0.026,0.321,0.109,0.786c0.093,0.51,0.558,0.864,1.074,0.817c0.518-0.046,0.91-0.477,0.91-0.996v-4.364l-0.206-0.608
		c-2.237-2.926-3.968-6.824-4.913-11.28c-0.06-0.276-0.231-0.514-0.475-0.656c-0.244-0.141-0.535-0.176-0.805-0.09l-0.018,0.033
		l-0.004,0.002l-0.156,0.02c-0.59,0.143-2.309-1.428-2.926-3.951c-0.219-0.803-0.319-1.584-0.319-2.277
		c-0.019-1.703,0.651-2.642,0.998-2.645l0.005-0.002l-0.207-0.764v0.793l0.207-0.029l-0.207-0.764v0.793
		c0-0.024,0,0.006,0.227,0.032l0.081-0.004c0.268-0.017,0.517-0.142,0.692-0.343c0.175-0.202,0.262-0.465,0.241-0.731
		c-0.252-3.28-0.574-7.807-0.571-9.072c0-0.444-0.014-0.858-0.014-1.255c0.026-1.668,0.131-3.108,2.416-6.221
		c1.545-2.043,2.688-2.287,3.329-2.301c0.511-0.002,0.675,0.187,0.705,0.141l1.241-0.133c-0.002-0.01,1.875-1.836,3.379-2.566
		c1.17-0.576,3.226-1.644,6.751-1.654c1.672,0,3.672,0.25,6.044,0.945c7.706,2.391,9.789,2.696,11.785,11.027
		c0.616,2.776,0.819,5.215,0.819,7.242c0,1.491-0.111,2.76-0.249,3.775c-0.075,0.543,0.305,1.045,0.849,1.123l0.161,0.013
		l0.128-0.017v-0.875L81.76,43.84c0.092,0.025,0.174,0.032,0.231,0.031v-0.875L81.76,43.84l0.009,0.002
		c0.346,0.003,1.015,0.939,0.996,2.645c0,0.693-0.101,1.475-0.318,2.277c-0.62,2.523-2.328,4.076-2.923,3.938l-0.124-0.012
		c-0.538-0.111-1.062,0.232-1.179,0.77c-0.998,4.678-2.857,8.739-5.263,11.701l-0.223,0.63v3.449c0,0.527,0.407,0.964,0.935,0.997
		c0.526,0.034,0.988-0.344,1.056-0.866c0.024-0.178,0.036-0.293,0.036-0.302l-0.994-0.099l-0.624,0.783
		c0.041,0.032,1.15,0.909,4.464,2.985c3.534,2.192,11.489,4.566,15.013,6.242c3.219,1.481,10.313,8.04,10.598,16.88l0.057,0.29
		c0.085,0.238,0.115,0.39,0.112,0.438c0.293,1.398-3.876,4.089-11.368,5.588c-7.406,1.617-17.73,2.599-29.132,2.597V105.772v1.001
		c23.058-0.344,41.597-3.137,42.499-10.186c-0.004-0.469-0.133-0.824-0.223-1.094l-0.945,0.327l0.999-0.037
		c-0.442-9.908-7.866-16.744-11.744-18.612c-3.758-1.762-11.749-4.196-14.803-6.128c-3.271-2.049-4.272-2.857-4.281-2.856
		c-0.286-0.228-0.674-0.28-1.012-0.137c-0.339,0.143-0.57,0.457-0.606,0.822c0,0-0.008,0.088-0.026,0.234l0.991,0.132h0.999V65.79
		h-0.999l0.776,0.63c2.646-3.263,4.608-7.604,5.666-12.543L79.2,53.668l-0.201,0.979c0.176,0.036,0.351,0.053,0.524,0.053
		c2.371-0.14,4.002-2.495,4.854-5.414c0.261-0.968,0.387-1.916,0.387-2.8c-0.017-2.035-0.62-3.994-2.483-4.578l0.007,0.002
		c-0.112-0.031-0.216-0.039-0.296-0.039l-0.128,0.018v0.859l0.125-0.852l-0.125-0.008v0.859l0.125-0.852l-0.144,0.99l0.991,0.134
		c0.148-1.093,0.268-2.454,0.268-4.044c0-2.162-0.218-4.748-0.869-7.674c-1.816-8.851-5.627-10.44-13.174-12.515
		c-2.54-0.744-4.735-1.025-6.606-1.025c-3.933-0.009-6.458,1.27-7.638,1.859c-1.964,0.988-3.859,2.911-3.902,2.942l0.705,0.708
		l0.539-0.843c-0.104-0.064-0.743-0.453-1.78-0.455c-1.337-0.014-3.173,0.715-4.934,3.104c-2.485,3.284-2.836,5.538-2.81,7.417
		c0,0.438,0.012,0.85,0.012,1.255c0.003,1.462,0.324,5.907,0.577,9.226L44.22,42.9l-0.065-0.998l0.049,0.738V41.9l-0.049,0.002
		l0.049,0.738V41.9c0,0.023,0-0.008-0.227-0.031c-0.089-0.002-0.197,0.009-0.317,0.041l0.005-0.002
		c-1.863,0.584-2.464,2.543-2.482,4.578c0,0.886,0.126,1.832,0.387,2.8c0.854,2.919,2.48,5.286,4.857,5.429
		c0.223,0,0.449-0.028,0.668-0.086h-0.003l0.112-0.062l-0.299-0.954l-0.979,0.208c1.002,4.707,2.829,8.868,5.281,12.079l0.795-0.605
		h-0.999v4.364h0.999l0.984-0.177c-0.069-0.385-0.083-0.593-0.086-0.595c-0.029-0.367-0.26-0.688-0.6-0.836
		c-0.339-0.146-0.73-0.094-1.021,0.136c-0.003,0.004-1.008,0.808-4.279,2.856c-3.054,1.932-11.046,4.366-14.803,6.128
		c-3.968,1.909-11.749,9.036-11.812,19.356l0.014,0.082l0.998-0.068l-1-0.016l-0.01,0.062c0.904,7.049,19.443,9.842,42.499,10.186
		V105.772z"/>
	<path d="M44.884,74.176l0.005,0.011c0.051,0.213,3.908,8.217,17.627,8.187c13.753,0.019,18.129-8.548,18.182-8.729L78.9,72.768
		c-0.036-0.002-3.551,7.587-16.385,7.605c-12.873-0.032-15.704-7.038-15.803-7.008l-0.005-0.01l-1.822,0.82H44.884z"/>
	<path d="M39.444,76.555l0.003,0.009v0.002c0.052,0.213,5.004,10.65,22.979,10.62c18.013,0.017,23.665-11.165,23.718-11.344
		l-1.796-0.879c-0.038,0.003-4.828,10.204-21.922,10.222c-17.131-0.031-21.05-9.469-21.155-9.44l-0.003-0.008L39.444,76.555z"/>
	<polyline points="37.256,103.328 40.296,93.832 38.391,93.223 35.352,102.719 	"/>
	<polyline points="89.304,102.719 86.266,93.223 84.36,93.832 87.4,103.328 	"/>
</g>
</svg>
