<?xml version="1.0" encoding="utf-8"?>
<!-- Generator: Adobe Illustrator 19.2.0, SVG Export Plug-In . SVG Version: 6.00 Build 0)  -->
<svg version="1.1" id="Layer_1" xmlns="http://www.w3.org/2000/svg" xmlns:xlink="http://www.w3.org/1999/xlink" x="0px" y="0px"
	 viewBox="0 0 105.8 64.7" style="enable-background:new 0 0 105.8 64.7;" xml:space="preserve">
<style type="text/css">
	.st0{fill-rule:evenodd;clip-rule:evenodd;fill:#F8C54A;}
	.st1{fill-rule:evenodd;clip-rule:evenodd;fill:#FFDA81;}
	.st2{fill-rule:evenodd;clip-rule:evenodd;fill:#368569;}
	.st3{fill-rule:evenodd;clip-rule:evenodd;fill:#131313;}
	.st4{fill-rule:evenodd;clip-rule:evenodd;fill:#7EB1A0;}
</style>
<g>
	<path class="st0" d="M5,13.7h79c1.1,0,2,0.9,2,2v45c0,1.1-0.9,2-2,2H5c-1.1,0-2-0.9-2-2v-45C3,14.6,3.9,13.7,5,13.7z"/>
	<rect x="8.1" y="19.2" class="st1" width="27.7" height="4.1"/>
	<rect x="8.1" y="26.2" class="st1" width="27.7" height="4.1"/>
	<rect x="8.1" y="54.2" class="st1" width="27.7" height="2.7"/>
	<rect x="41.1" y="54.2" class="st1" width="27.7" height="2.7"/>
	<path class="st2" d="M22,3.7h79c1.1,0,2,0.9,2,2v45c0,1.1-0.9,2-2,2H22c-1.1,0-2-0.9-2-2v-45C20,4.6,20.9,3.7,22,3.7z"/>
	<rect x="20" y="13.8" class="st3" width="83" height="11.9"/>
	<rect x="25.8" y="30.4" class="st4" width="44.7" height="6.2"/>
	<rect x="25.9" y="7.3" class="st4" width="37.4" height="2.4"/>
	<rect x="25.9" y="41.3" class="st4" width="56.7" height="2.4"/>
	<rect x="25.9" y="45.3" class="st4" width="18.7" height="2.4"/>
</g>
</svg>
