<?xml version="1.0" encoding="utf-8"?>
<!-- Generator: Adobe Illustrator 19.2.0, SVG Export Plug-In . SVG Version: 6.00 Build 0)  -->
<svg version="1.1" id="Layer_1" xmlns="http://www.w3.org/2000/svg" xmlns:xlink="http://www.w3.org/1999/xlink" x="0px" y="0px"
	 viewBox="0 0 718.3 394.3" style="enable-background:new 0 0 718.3 394.3;" xml:space="preserve">
<style type="text/css">
	.st0{fill-rule:evenodd;clip-rule:evenodd;fill:#EBEBEB;}
	.st1{fill:#D7D7D7;}
	.st2{fill-rule:evenodd;clip-rule:evenodd;fill:#FFFFFF;}
	.st3{fill-rule:evenodd;clip-rule:evenodd;fill:url(#SVGID_1_);}
	.st4{fill-rule:evenodd;clip-rule:evenodd;fill:#5A19CE;}
	.st5{fill-rule:evenodd;clip-rule:evenodd;fill:#712EEB;}
	.st6{fill-rule:evenodd;clip-rule:evenodd;fill:#7233E3;}
	.st7{fill-rule:evenodd;clip-rule:evenodd;fill:#51B3E0;}
	.st8{fill:#00A0EA;}
	.st9{fill-rule:evenodd;clip-rule:evenodd;fill:#00A0EA;}
	.st10{fill-rule:evenodd;clip-rule:evenodd;fill:#1632DA;}
	.st11{fill-rule:evenodd;clip-rule:evenodd;fill:#CFD1E2;}
</style>
<g>
	<path class="st0" d="M88,3.5h554c4.4,0,8,3.6,8,8v372c0,4.4-3.6,8-8,8H88c-4.4,0-8-3.6-8-8v-372C80,7.1,83.6,3.5,88,3.5z"/>
	<path class="st1" d="M642,391.6H88c-4.4,0-8-3.6-8-8v-372c0-4.4,3.6-8,8-8h554c4.4,0,8,3.6,8,8v372C650,388,646.4,391.6,642,391.6z
		 M642,389.5c3.3,0,6-2.7,6-6v-372c0-3.3-2.7-6-6-6H88c-3.3,0-6,2.7-6,6v372c0,3.3,2.7,6,6,6H642"/>
	<rect x="98" y="37.5" class="st2" width="534" height="339"/>
	<path class="st1" d="M632,376.5H98v-339h534V376.5z M631,375.5v-337H99v337H631"/>
	<linearGradient id="SVGID_1_" gradientUnits="userSpaceOnUse" x1="365.0249" y1="247.55" x2="365.0249" y2="75.5191">
		<stop  offset="0" style="stop-color:#8047E6"/>
		<stop  offset="1" style="stop-color:#6019E0"/>
	</linearGradient>
	<rect x="99" y="75.5" class="st3" width="532" height="172"/>
	<polygon class="st4" points="631,247.6 631,192.3 525,128.5 439,212.6 429.8,247.6 	"/>
	<polygon class="st5" points="296.8,95.5 99,197.3 99,247.6 525.5,247.6 	"/>
	<circle class="st6" cx="116" cy="99.5" r="2"/>
	<circle class="st6" cx="121" cy="122.5" r="2"/>
	<circle class="st6" cx="423" cy="107.5" r="2"/>
	<circle class="st6" cx="391" cy="124.5" r="2"/>
	<circle class="st6" cx="436" cy="141.5" r="2"/>
	<circle class="st6" cx="477" cy="99.5" r="2"/>
	<circle class="st6" cx="585" cy="130.5" r="2"/>
	<circle class="st6" cx="585" cy="103.5" r="2"/>
	<circle class="st6" cx="527" cy="99.5" r="2"/>
	<circle class="st6" cx="466" cy="162.5" r="2"/>
	<circle class="st6" cx="445" cy="95.5" r="2"/>
	<circle class="st6" cx="351" cy="91.5" r="2"/>
	<circle class="st6" cx="240" cy="87.5" r="2"/>
	<circle class="st6" cx="173" cy="99.5" r="2"/>
	<circle class="st6" cx="140" cy="77.5" r="2"/>
	<circle class="st6" cx="615" cy="122.5" r="2"/>
	<circle class="st7" cx="186" cy="294.5" r="29"/>
	<path class="st8" d="M186,323.5c-16,0-29-13-29-29s13-29,29-29s29,13,29,29S202,323.5,186,323.5z M186,321.6c14.9,0,27-12.1,27-27
		c0-14.9-12.1-27-27-27c-14.9,0-27,12.1-27,27C159,309.4,171.1,321.6,186,321.6"/>
	<circle class="st7" cx="376" cy="294.5" r="29"/>
	<path class="st8" d="M376,323.5c-16,0-29-13-29-29s13-29,29-29c16,0,29,13,29,29S392,323.5,376,323.5z M376,321.6
		c14.9,0,27-12.1,27-27c0-14.9-12.1-27-27-27c-14.9,0-27,12.1-27,27C349,309.4,361.1,321.6,376,321.6"/>
	<circle class="st7" cx="545" cy="294.5" r="29"/>
	<path class="st8" d="M545,323.5c-16,0-29-13-29-29s13-29,29-29s29,13,29,29S561,323.5,545,323.5z M545,321.6c14.9,0,27-12.1,27-27
		c0-14.9-12.1-27-27-27c-14.9,0-27,12.1-27,27C518,309.4,530.1,321.6,545,321.6"/>
	<circle class="st2" cx="374.8" cy="22" r="5.5"/>
	<path class="st9" d="M127.9,197H218c1.1,0,2,0.9,2,2v19.5c0,1.1-0.9,2-2,2h-90.1c-1.1,0-2-0.9-2-2V199
		C125.9,197.9,126.8,197,127.9,197z"/>
	<path class="st10" d="M127.8,51.1h60.8c1.1,0,2,0.9,2,2v7.4c0,1.1-0.9,2-2,2h-60.8c-1.1,0-2-0.9-2-2v-7.4
		C125.8,52,126.7,51.1,127.8,51.1z"/>
	<path class="st11" d="M561.8,53.1h40.8c1.1,0,2,0.9,2,2v2.4c0,1.1-0.9,2-2,2h-40.8c-1.1,0-2-0.9-2-2v-2.4
		C559.8,54,560.7,53.1,561.8,53.1z"/>
	<path class="st11" d="M503.8,53.1h40.8c1.1,0,2,0.9,2,2v2.4c0,1.1-0.9,2-2,2h-40.8c-1.1,0-2-0.9-2-2v-2.4
		C501.8,54,502.7,53.1,503.8,53.1z"/>
	<path class="st11" d="M446.8,53.1h40.8c1.1,0,2,0.9,2,2v2.4c0,1.1-0.9,2-2,2h-40.8c-1.1,0-2-0.9-2-2v-2.4
		C444.8,54,445.7,53.1,446.8,53.1z"/>
	<path class="st2" d="M138.9,207.5h67c1.1,0,2,0.9,2,2v1.4c0,1.1-0.9,2-2,2h-67c-1.1,0-2-0.9-2-2v-1.4
		C136.9,208.4,137.8,207.5,138.9,207.5z"/>
	<path class="st0" d="M149.9,335.5h67c1.1,0,2,0.9,2,2v1.4c0,1.1-0.9,2-2,2h-67c-1.1,0-2-0.9-2-2v-1.4
		C147.9,336.4,148.8,335.5,149.9,335.5z"/>
	<path class="st0" d="M169.9,345.5h27c1.1,0,2,0.9,2,2v1.4c0,1.1-0.9,2-2,2h-27c-1.1,0-2-0.9-2-2v-1.4
		C167.9,346.4,168.8,345.5,169.9,345.5z"/>
	<path class="st0" d="M340.9,335.5h67c1.1,0,2,0.9,2,2v1.4c0,1.1-0.9,2-2,2h-67c-1.1,0-2-0.9-2-2v-1.4
		C338.9,336.4,339.8,335.5,340.9,335.5z"/>
	<path class="st0" d="M360.9,345.5h27c1.1,0,2,0.9,2,2v1.4c0,1.1-0.9,2-2,2h-27c-1.1,0-2-0.9-2-2v-1.4
		C358.9,346.4,359.8,345.5,360.9,345.5z"/>
	<path class="st0" d="M511.9,335.5h67c1.1,0,2,0.9,2,2v1.4c0,1.1-0.9,2-2,2h-67c-1.1,0-2-0.9-2-2v-1.4
		C509.9,336.4,510.8,335.5,511.9,335.5z"/>
	<path class="st0" d="M531.9,345.5h27c1.1,0,2,0.9,2,2v1.4c0,1.1-0.9,2-2,2h-27c-1.1,0-2-0.9-2-2v-1.4
		C529.9,346.4,530.8,345.5,531.9,345.5z"/>
	<path class="st0" d="M5,370.5h708c1.1,0,2,0.9,2,2v17c0,1.1-0.9,2-2,2H5c-1.1,0-2-0.9-2-2v-17C3,371.4,3.9,370.5,5,370.5z"/>
	<path class="st1" d="M713,391.6H5c-1.1,0-2-0.9-2-2v-17c0-1.1,0.9-2,2-2h708c1.1,0,2,0.9,2,2v17C715,390.7,714.1,391.6,713,391.6z
		 M713,389.5v-17H5v17H713"/>
	<rect x="298.1" y="370.5" class="st2" width="127.3" height="9.7"/>
	<path class="st1" d="M425.4,380.2H298.1v-9.7h127.3V380.2z M423.4,378.2v-5.7H300.1v5.7H423.4"/>
	<path class="st2" d="M129.4,105.5H376c1.1,0,2,0.9,2,2v13c0,1.1-0.9,2-2,2H129.4c-1.1,0-2-0.9-2-2v-13
		C127.4,106.4,128.3,105.5,129.4,105.5z"/>
	<path class="st2" d="M129.4,139.5H197c1.1,0,2,0.9,2,2v3c0,1.1-0.9,2-2,2h-67.7c-1.1,0-2-0.9-2-2v-3
		C127.4,140.4,128.3,139.5,129.4,139.5z"/>
	<path class="st2" d="M237.4,153.5H255c1.1,0,2,0.9,2,2v3c0,1.1-0.9,2-2,2h-17.7c-1.1,0-2-0.9-2-2v-3
		C235.4,154.4,236.3,153.5,237.4,153.5z"/>
	<path class="st2" d="M209.4,139.5H334c1.1,0,2,0.9,2,2v3c0,1.1-0.9,2-2,2H209.4c-1.1,0-2-0.9-2-2v-3
		C207.4,140.4,208.3,139.5,209.4,139.5z"/>
	<path class="st2" d="M129.4,167.5H274c1.1,0,2,0.9,2,2v3c0,1.1-0.9,2-2,2H129.4c-1.1,0-2-0.9-2-2v-3
		C127.4,168.4,128.3,167.5,129.4,167.5z"/>
	<path class="st2" d="M129.4,153.5H224c1.1,0,2,0.9,2,2v3c0,1.1-0.9,2-2,2h-94.7c-1.1,0-2-0.9-2-2v-3
		C127.4,154.4,128.3,153.5,129.4,153.5z"/>
</g>
</svg>
