<?xml version="1.0" encoding="utf-8"?>
<!-- Generator: Adobe Illustrator 19.2.0, SVG Export Plug-In . SVG Version: 6.00 Build 0)  -->
<svg version="1.1" id="Layer_1" xmlns="http://www.w3.org/2000/svg" xmlns:xlink="http://www.w3.org/1999/xlink" x="0px" y="0px"
	 viewBox="0 0 109.1 68.6" style="enable-background:new 0 0 109.1 68.6;" xml:space="preserve">
<style type="text/css">
	.st0{fill-rule:evenodd;clip-rule:evenodd;fill:#E4E4E4;}
	.st1{fill-rule:evenodd;clip-rule:evenodd;fill:#3075CA;}
	.st2{fill-rule:evenodd;clip-rule:evenodd;fill:#91BBEF;}
	.st3{fill-rule:evenodd;clip-rule:evenodd;fill:#C2DDFF;}
	.st4{fill-rule:evenodd;clip-rule:evenodd;fill:#D4D4D4;}
	.st5{fill-rule:evenodd;clip-rule:evenodd;fill:#A8A8A8;}
	.st6{fill-rule:evenodd;clip-rule:evenodd;fill:#CA5430;}
	.st7{fill-rule:evenodd;clip-rule:evenodd;fill:#FFFFFF;}
	.st8{fill-rule:evenodd;clip-rule:evenodd;fill:#7D2B12;}
	.st9{fill-rule:evenodd;clip-rule:evenodd;fill:#FFC600;}
</style>
<g>
	<path class="st0" d="M12.3,20.8h76.4c0.8,0,1.4,0.6,1.4,1.4v41.5c0,0.8-0.6,1.4-1.4,1.4H12.3c-0.8,0-1.4-0.6-1.4-1.4V22.2
		C10.9,21.4,11.5,20.8,12.3,20.8z"/>
	<rect x="14.7" y="24.4" class="st1" width="72.4" height="36.5"/>
	<path class="st2" d="M22.2,30.6h57.2c0.9,0,1.7,0.8,1.7,1.7v29.2c0,0.9-0.8,1.7-1.7,1.7H22.2c-0.9,0-1.7-0.8-1.7-1.7V32.3
		C20.5,31.3,21.2,30.6,22.2,30.6z"/>
	<rect x="20.5" y="34.5" class="st3" width="60.6" height="18.1"/>
	<rect x="26.5" y="55.1" class="st3" width="8.5" height="2.6"/>
	<rect x="46.2" y="55.1" class="st3" width="8.5" height="2.6"/>
	<rect x="66.7" y="55.1" class="st3" width="8.5" height="2.6"/>
	<path class="st4" d="M3.7,60.6h93.4c0.4,0,0.7,0.3,0.7,0.7v4.1c0,0.4-0.3,0.7-0.7,0.7H3.7c-0.4,0-0.7-0.3-0.7-0.7v-4.1
		C3,61,3.3,60.6,3.7,60.6z"/>
	<rect x="43.9" y="61" class="st5" width="13.4" height="1.8"/>
	<path class="st6" d="M64.7,2.6h40.9c0.9,0,1.6,0.7,1.6,1.6v49.4c0,0.9-0.7,1.6-1.6,1.6H64.7c-0.9,0-1.6-0.7-1.6-1.6V4.2
		C63,3.3,63.8,2.6,64.7,2.6z"/>
	<path class="st7" d="M68.4,15H102c0.6,0,1,0.4,1,1v2.3c0,0.6-0.4,1-1,1H68.4c-0.6,0-1-0.4-1-1V16C67.4,15.4,67.9,15,68.4,15z"/>
	<path class="st8" d="M78.4,8H92c0.6,0,1,0.4,1,1v0.3c0,0.6-0.4,1-1,1H78.4c-0.6,0-1-0.4-1-1V9C77.4,8.4,77.9,8,78.4,8z"/>
	<path class="st7" d="M68.4,23H102c0.6,0,1,0.4,1,1v2.3c0,0.6-0.4,1-1,1H68.4c-0.6,0-1-0.4-1-1V24C67.4,23.4,67.9,23,68.4,23z"/>
	<path class="st7" d="M68.4,31H102c0.6,0,1,0.4,1,1v2.3c0,0.6-0.4,1-1,1H68.4c-0.6,0-1-0.4-1-1V32C67.4,31.4,67.9,31,68.4,31z"/>
	<path class="st7" d="M68.4,39H102c0.6,0,1,0.4,1,1v2.3c0,0.6-0.4,1-1,1H68.4c-0.6,0-1-0.4-1-1V40C67.4,39.4,67.9,39,68.4,39z"/>
	<path class="st9" d="M68.4,47H102c0.6,0,1,0.4,1,1v2.3c0,0.6-0.4,1-1,1H68.4c-0.6,0-1-0.4-1-1V48C67.4,47.4,67.9,47,68.4,47z"/>
</g>
</svg>
