<?xml version="1.0" encoding="utf-8"?>
<!-- Generator: Adobe Illustrator 19.2.0, SVG Export Plug-In . SVG Version: 6.00 Build 0)  -->
<svg version="1.1" id="Layer_1" xmlns="http://www.w3.org/2000/svg" xmlns:xlink="http://www.w3.org/1999/xlink" x="0px" y="0px"
	 viewBox="0 0 89.2 52.6" style="enable-background:new 0 0 89.2 52.6;" xml:space="preserve">
<style type="text/css">
	.st0{fill-rule:evenodd;clip-rule:evenodd;fill:#FFD688;}
	.st1{fill-rule:evenodd;clip-rule:evenodd;fill:#EFC473;}
	.st2{fill-rule:evenodd;clip-rule:evenodd;fill:#368569;}
	.st3{fill-rule:evenodd;clip-rule:evenodd;fill:#2f775d;}
	.st4{fill-rule:evenodd;clip-rule:evenodd;fill:#fa5a6d;}
	.st5{fill-rule:evenodd;clip-rule:evenodd;fill:#c43949;}
	.st6{fill-rule:evenodd;clip-rule:evenodd;fill:#48a282;}
	.st7{fill-rule:evenodd;clip-rule:evenodd;fill:#fa5a6d;}
</style>
<g>
	<path class="st0" d="M20.6,11.7c0,0,7.2,0,8.3,0c1,0,5.1-3.1,6.9-3.1s7.1,0,8.3,0c1.3,0,4.7,1.4,8.9,8.9
		c4.3,7.5,11.6,20.6,12.1,21.6c0.5,1,1,3.8-0.5,4.9c-1.5,1.1-2.8,1.7-3.7,1.7c-0.9,0-2.3-1.4-2.3-1.4s-1,2.2-2.7,2.9
		c-2.7,1.1-5.8,0.1-5.8,0.1s-0.3,2.1-2.6,2.6c-3.8,0.9-5.5-1.4-5.5-1.4s-1.4,1.8-3.2,2.3c-1.8,0.5-3.8,0.4-6.2-3.1
		C30.2,44.2,26,36.8,26,36.8h-5.4V11.7z"/>
	<path class="st1" d="M33.3,22l1.1-2.6c0,0,1.3,2.8,5.2,1.4c1.9-0.7,9.1-8,9.1-8l2.1-0.6l14.5,25.7c0,0,0.6,2.4,0.3,3.9
		c-0.2,0.9-0.4,1.5-0.4,1.5S51.5,19.5,51,18.7c-0.5-0.9-2.1-0.6-3.8,1c-1.7,1.6-3.6,3.5-4.9,4.7c-1.4,1.2-4.3,1.9-6.2,1.1
		C34.1,24.7,33.2,23.4,33.3,22z"/>
	<path class="st1" d="M45.4,37.6c0.7-0.4,1.7-0.2,2.1,0.6l5.8,9.6c0,0-1.3,0-2-0.2c-0.7-0.1-1.3-0.3-1.3-0.3s0,0.2-0.1,0.5
		s-0.2,0.5-0.2,0.5l-4.9-8.5C44.4,38.9,44.7,38,45.4,37.6z"/>
	<path class="st1" d="M37.4,40.6c0.7-0.4,1.7-0.2,2.1,0.6l5.1,8.9c0,0-1-0.2-1.5-0.6c-0.5-0.3-1.2-1-1.2-1s-0.2,0.3-0.5,0.6
		c-0.3,0.3-0.7,0.6-0.7,0.6l-4-7C36.4,41.9,36.7,41,37.4,40.6z"/>
	<path class="st1" d="M52.4,33.6c0.7-0.4,1.7-0.2,2.1,0.6l6.7,11.6c-1.1,0.1-2.6-1.3-2.6-1.3l-0.9,1.4l-5.8-10.1
		C51.4,34.9,51.7,34,52.4,33.6z"/>
	<path class="st2" d="M3.3,8.4h17.6v30.5c0,0-1,2-3,2c-2,0-8.2,0-9.9,0c-1.7,0-2.7-1.7-3-4C4.8,34.7,3.3,8.4,3.3,8.4z"/>
	<path class="st3" d="M4.5,26.5h16.5c0,0,0,10.8,0,12.4c0,1.6-1.2,2.4-2.5,2.4c-1.3,0-9.5,0-10.9,0c-0.6,0-2-0.6-2.2-3
		C4.9,33.5,4.5,26.5,4.5,26.5z"/>
	<path class="st0" d="M33.3,18c0,0,11-13.1,12.1-14.2c1.1-1.1,3-0.9,5.3-0.9c2.3,0,4.1,0,5.4,0c1.3,0,3.4,1.1,5.3,2.5
		c1.9,1.4,8.9,6,8.9,6v26.7h-5.8c0,0-12.9-22.6-13.4-23.4c-0.5-0.9-2.1-0.6-3.8,1c-1.7,1.6-3.6,3.5-4.9,4.7
		c-1.4,1.2-4.3,1.9-6.2,1.1C34.1,20.7,33.2,19.4,33.3,18z"/>
	<path class="st4" d="M87.9,8.4H70.3v30.5c0,0,1,2,3,2c2,0,8.2,0,9.9,0c1.7,0,2.7-1.7,3-4C86.4,34.7,87.9,8.4,87.9,8.4z"/>
	<path class="st5" d="M70.3,27.3l16.6,0.1c0,0-0.4,8-0.5,9.7C86.2,38.9,85,41,82.9,41c-2.1,0-10,0-10.6,0c-1,0-2-1.2-2-2.1
		C70.3,38,70.3,27.3,70.3,27.3z"/>
	<circle class="st6" cx="12.8" cy="34.4" r="2.8"/>
	<circle class="st7" cx="78.8" cy="34.4" r="2.8"/>
</g>
</svg>
