<?xml version="1.0" encoding="utf-8"?>
<!-- Generator: Adobe Illustrator 19.2.0, SVG Export Plug-In . SVG Version: 6.00 Build 0)  -->
<svg version="1.1" id="Layer_1" xmlns="http://www.w3.org/2000/svg" xmlns:xlink="http://www.w3.org/1999/xlink" x="0px" y="0px"
	 viewBox="0 0 101.3 67.5" style="enable-background:new 0 0 101.3 67.5;" xml:space="preserve">
<style type="text/css">
	.st0{fill-rule:evenodd;clip-rule:evenodd;fill:#E74256;}
	.st1{fill-rule:evenodd;clip-rule:evenodd;fill:#C43949;}
	.st2{fill-rule:evenodd;clip-rule:evenodd;fill:#2F775D;}
	.st3{fill-rule:evenodd;clip-rule:evenodd;fill:#205C46;}
	.st4{fill-rule:evenodd;clip-rule:evenodd;fill:#49A282;}
	.st5{fill-rule:evenodd;clip-rule:evenodd;fill:#FA5A6D;}
	.st6{fill-rule:evenodd;clip-rule:evenodd;fill:#FFD688;}
	.st7{fill-rule:evenodd;clip-rule:evenodd;fill:#F8C54A;}
	.st8{fill-rule:evenodd;clip-rule:evenodd;fill:#FFE035;}
	.st9{fill-rule:evenodd;clip-rule:evenodd;fill:#2B2B2B;}
</style>
<g>
	<rect x="4.8" y="21.2" class="st0" width="35" height="40.7"/>
	<rect x="2.9" y="20.9" class="st1" width="53.9" height="3"/>
	<rect x="24.9" y="3.9" class="st2" width="49" height="58"/>
	<rect x="22.9" y="3.9" class="st3" width="52.9" height="3"/>
	<rect x="28.9" y="10.8" class="st4" width="4.6" height="7.1"/>
	<rect x="7.9" y="26.8" class="st5" width="4.6" height="7.1"/>
	<rect x="16.9" y="26.8" class="st5" width="4.6" height="7.1"/>
	<rect x="7.9" y="37.8" class="st5" width="4.6" height="7.1"/>
	<rect x="16.9" y="37.8" class="st5" width="4.6" height="7.1"/>
	<rect x="7.9" y="48.8" class="st5" width="4.6" height="7.1"/>
	<rect x="16.9" y="48.8" class="st5" width="4.6" height="7.1"/>
	<rect x="37.9" y="10.8" class="st4" width="4.6" height="7.1"/>
	<rect x="46.9" y="10.8" class="st4" width="4.6" height="7.1"/>
	<rect x="55.9" y="10.8" class="st4" width="4.6" height="7.1"/>
	<rect x="64.9" y="10.8" class="st4" width="4.6" height="7.1"/>
	<rect x="28.9" y="21.8" class="st4" width="4.6" height="7.1"/>
	<rect x="37.9" y="21.8" class="st4" width="4.6" height="7.1"/>
	<rect x="46.9" y="21.8" class="st4" width="4.6" height="7.1"/>
	<rect x="55.9" y="21.8" class="st4" width="4.6" height="7.1"/>
	<rect x="64.9" y="21.8" class="st4" width="4.6" height="7.1"/>
	<rect x="28.9" y="32.8" class="st4" width="4.6" height="7.1"/>
	<rect x="37.9" y="32.8" class="st4" width="4.6" height="7.1"/>
	<rect x="46.9" y="32.8" class="st4" width="4.6" height="7.1"/>
	<rect x="55.9" y="32.8" class="st4" width="4.6" height="7.1"/>
	<rect x="64.9" y="32.8" class="st4" width="4.6" height="7.1"/>
	<rect x="28.9" y="43.8" class="st4" width="4.6" height="7.1"/>
	<rect x="37.9" y="43.8" class="st4" width="4.6" height="7.1"/>
	<rect x="46.9" y="43.8" class="st4" width="4.6" height="7.1"/>
	<rect x="55.9" y="43.8" class="st4" width="4.6" height="7.1"/>
	<rect x="64.9" y="43.8" class="st4" width="4.6" height="7.1"/>
	<rect x="74.4" y="43.4" class="st6" width="12.4" height="6.1"/>
	<path class="st6" d="M68.8,32.6c0,0-0.7,0.1-0.7,1.3c0,1.3,1.6,2.4,1.6,2.4s0.2,9.3,10.9,9.3c10.7,0,10.8-9,10.8-9s1.4-1,1.7-2
		c0.3-1.1-0.7-1.9-0.7-1.9s-1.5-5-2.5-6.5c-1-1.5-4.8-4.1-8.8-3.7c-3.9,0.4-6.5,1-7.5,1.5c-1,0.5-2.3,4.7-2.3,4.7L68.8,32.6z"/>
	<path class="st7" d="M73.7,48c0,0-5.7,1.5-8.7,5.8c-3,4.3-4.3,9.1-1.8,9.8c2.5,0.7,8.9,2.9,17.3,2.9c8.4,0,15.9-2.1,17.7-2.7
		c1.8-0.7,1.6-6.2-2.2-10.3c-4.3-4.6-9.1-5.4-9.1-5.4H73.7z"/>
	<path class="st8" d="M89.4,48.8c0,5-4.1,8.9-9,8.9c-5,0-9.1-3.9-9.1-8.8C74.8,47,85.4,46.8,89.4,48.8z"/>
	<path class="st6" d="M80.4,42.8c3.3,0,6.4,1.9,6.4,5.1c0,3.3-3.2,6.6-6.4,6.6c-3.2,0-6-3.4-6-6.7C74.4,44.7,77.1,42.8,80.4,42.8z"
		/>
	<path class="st9" d="M70.5,35.7c0,0,0.5-1.3-1-2.6s-1.7-1.4-1.7-1.4s-0.7-9.8,5.3-13.4c5.9-3.6,10.8-2.7,11.4-2.2
		c0.6,0.5,0.8,1.9,1.1,2.2c0.3,0.2,4.7,1.3,6,3.8c1.4,2.6,1.7,8,1.5,9c-0.2,1-1.2,1.7-1.8,2.5c-0.6,0.7-0.4,1.6-0.9,1.2
		c-0.5-0.4,0-6.8,0-6.8s-1.4-0.5-2.9-2.2c-1.4-1.7-2.1-2.8-2.1-2.8s-1,1.7-6.2,3.4c-5.1,1.7-8.5,2.3-8.5,2.3s0.4,3.2,0.2,5
		C70.9,35.4,70.9,36.1,70.5,35.7z"/>
</g>
</svg>
