<?xml version="1.0" encoding="utf-8"?>
<!-- Generator: Adobe Illustrator 19.2.0, SVG Export Plug-In . SVG Version: 6.00 Build 0)  -->
<svg version="1.1" id="Layer_1" xmlns="http://www.w3.org/2000/svg" xmlns:xlink="http://www.w3.org/1999/xlink" x="0px" y="0px"
	 viewBox="0 0 190 50" style="enable-background:new 0 0 190 50;" xml:space="preserve">
<style type="text/css">
	.st0{fill:#26A0FF;}
	.st1{fill:#92278F;}
	.st2{fill-rule:evenodd;clip-rule:evenodd;fill:#208FE5;}
	.st3{fill-rule:evenodd;clip-rule:evenodd;fill:#58B3F8;}
	.st4{fill-rule:evenodd;clip-rule:evenodd;fill:#92278F;}
	.st5{fill-rule:evenodd;clip-rule:evenodd;fill:#FFFFFF;}
</style>
<path class="st0" d="M179,25.7c-1.2,0.9-2.7,1.4-4.4,1.4c-2.4,0-4.4-0.6-6-1.7v-4.2c1.6,1.3,3.4,2,5.3,2c0,0,0,0,0,0
	c0.7,0,1.2-0.1,1.7-0.4c0.5-0.3,0.7-0.6,0.7-1.1c0-0.3-0.1-0.6-0.4-0.8c-0.3-0.2-0.7-0.4-1.2-0.5l-1.5-0.4c-0.6-0.1-1.1-0.3-1.7-0.6
	c-0.6-0.2-1.1-0.6-1.6-0.9c-0.5-0.4-0.8-0.9-1.1-1.5c-0.3-0.7-0.4-1.4-0.4-2.3c0-1.8,0.6-3.1,1.8-4c1.2-0.9,2.8-1.3,4.6-1.3
	c1.6,0,3.2,0.4,4.7,1.2v3.9c-1.4-0.8-2.7-1.3-4-1.3c-0.7,0-1.3,0.1-1.8,0.3c-0.5,0.2-0.8,0.6-0.8,1.1c0,0.3,0.2,0.6,0.6,0.8
	c0.4,0.2,0.9,0.4,1.5,0.5c0.6,0.1,1.2,0.3,1.9,0.5c0.7,0.3,1.3,0.6,1.9,0.9c0.6,0.4,1.1,0.9,1.5,1.7c0.4,0.8,0.6,1.7,0.6,2.8
	C180.8,23.5,180.2,24.7,179,25.7z M159.5,19.9v-3.3h6.7v8.8c-1.9,1.1-4,1.7-6.5,1.7c-0.8,0-1.6-0.1-2.3-0.2
	c-0.7-0.1-1.4-0.4-2.2-0.8c-0.7-0.4-1.4-0.9-1.9-1.6c-0.5-0.6-1-1.5-1.3-2.6c-0.3-1.1-0.5-2.3-0.5-3.7c0-1.7,0.2-3.2,0.7-4.5
	c0.5-1.2,1.1-2.1,2-2.7c0.8-0.6,1.7-1,2.6-1.3c0.9-0.3,1.8-0.4,2.9-0.4c2.1,0,4.1,0.4,6,1.3v3.6c-1.8-0.7-3.5-1.1-5.3-1.1
	c-2.9,0-4.4,1.7-4.4,5c0,1.9,0.4,3.2,1.1,3.9c0.8,0.7,1.8,1.1,3.1,1.1c1,0,1.8-0.1,2.4-0.4v-2.9H159.5z M144.7,26.9l-7.1-10.3v10.3
	h-4.5V9.5h4.5l7,10.4V9.5h4.5v17.3H144.7z M125.5,26.9V9.5h4.5v17.3H125.5z M124,26.9h-5.6l-4.4-6.8l-1.2,1.4v5.4h-4.5V9.5h4.5v6.1
	l4.8-6.1h6l-6.8,7.5L124,26.9z M100.5,14.3c-0.7-0.7-1.6-1.1-2.7-1.1c-1.1,0-2,0.4-2.7,1.1c-0.7,0.7-1,2-1,3.9s0.3,3.2,1,3.9
	c0.7,0.7,1.6,1.1,2.7,1.1c1.1,0,2-0.4,2.7-1.1s1-2,1-3.9S101.2,15,100.5,14.3z M105.5,21.9c-0.3,1.1-0.8,1.9-1.3,2.6
	c-0.5,0.6-1.2,1.1-1.9,1.5c-0.7,0.4-1.5,0.7-2.2,0.8C99.4,27,98.7,27,97.9,27c-0.8,0-1.6-0.1-2.3-0.2c-0.7-0.1-1.4-0.4-2.2-0.8
	c-0.7-0.4-1.4-0.9-1.9-1.5c-0.5-0.6-1-1.5-1.3-2.6c-0.3-1.1-0.5-2.3-0.5-3.7c0-1.4,0.2-2.6,0.5-3.7c0.3-1.1,0.8-1.9,1.3-2.6
	c0.5-0.6,1.2-1.1,1.9-1.5c0.7-0.4,1.5-0.7,2.2-0.8c0.7-0.1,1.5-0.2,2.3-0.2c0.8,0,1.6,0.1,2.3,0.2c0.7,0.1,1.4,0.4,2.2,0.8
	c0.7,0.4,1.4,0.9,1.9,1.5c0.5,0.6,1,1.5,1.3,2.6c0.3,1.1,0.5,2.3,0.5,3.7C106,19.6,105.8,20.9,105.5,21.9z M82.7,14.3
	c-0.7-0.7-1.6-1.1-2.7-1.1c-1.1,0-2,0.4-2.7,1.1c-0.7,0.7-1,2-1,3.9s0.3,3.2,1,3.9c0.7,0.7,1.6,1.1,2.7,1.1c1.1,0,2-0.4,2.7-1.1
	c0.7-0.7,1-2,1-3.9S83.4,15,82.7,14.3z M87.7,21.9c-0.3,1.1-0.8,1.9-1.3,2.6c-0.5,0.6-1.2,1.1-1.9,1.5c-0.7,0.4-1.5,0.7-2.2,0.8
	C81.6,27,80.8,27,80,27c-0.8,0-1.6-0.1-2.3-0.2c-0.7-0.1-1.4-0.4-2.2-0.8c-0.7-0.4-1.4-0.9-1.9-1.5c-0.5-0.6-1-1.5-1.3-2.6
	c-0.3-1.1-0.5-2.3-0.5-3.7c0-1.4,0.2-2.6,0.5-3.7c0.3-1.1,0.8-1.9,1.3-2.6c0.5-0.6,1.2-1.1,1.9-1.5c0.7-0.4,1.5-0.7,2.2-0.8
	c0.7-0.1,1.5-0.2,2.3-0.2c0.8,0,1.6,0.1,2.3,0.2c0.7,0.1,1.4,0.4,2.2,0.8c0.7,0.4,1.4,0.9,1.9,1.5c0.5,0.6,1,1.5,1.3,2.6
	c0.3,1.1,0.5,2.3,0.5,3.7C88.2,19.6,88,20.9,87.7,21.9z M65.6,19.9c-0.5-0.3-1-0.4-1.6-0.4h-2.5v3.8H64c0,0,0.1,0,0.1,0
	c0.6,0,1.1-0.1,1.5-0.4c0.4-0.3,0.6-0.8,0.6-1.5C66.3,20.7,66,20.2,65.6,19.9z M64.8,13.6c-0.4-0.3-0.8-0.4-1.3-0.4h-2v3.1h2.3
	c0.4,0,0.8-0.1,1.1-0.4c0.3-0.3,0.5-0.6,0.5-1.1C65.4,14.3,65.2,13.9,64.8,13.6z M68.8,16.9c-0.3,0.3-0.6,0.4-0.8,0.5
	c-0.2,0.1-0.5,0.2-0.8,0.3c2.4,0.7,3.6,2.1,3.6,4.4c0,3.2-2.4,4.8-7.3,4.8H57V9.5H63c4.6,0,6.9,1.6,6.9,4.9c0,0.6-0.1,1-0.3,1.5
	C69.4,16.3,69.2,16.6,68.8,16.9z"/>
<path class="st1" d="M149.3,34.5c-0.6-0.6-1.5-0.9-2.7-0.9H145v6.5h1.6c1.1,0,2-0.3,2.7-0.9c0.6-0.6,1-1.4,1-2.4
	C150.3,35.9,149.9,35.1,149.3,34.5z M150.3,40.2c-0.9,0.8-2.1,1.3-3.6,1.3h-3.2v-9.1h3.2c1.5,0,2.7,0.4,3.6,1.3
	c0.9,0.8,1.4,1.9,1.4,3.3C151.7,38.2,151.3,39.3,150.3,40.2z M140,41.4l-5.2-6.6v6.6h-1.4v-9.1h1.2l5.1,6.6v-6.6h1.4v9.1H140z
	 M130.1,40.5c-0.7,0.7-1.6,1.1-2.8,1.1c-1.1,0-2-0.4-2.8-1c-0.7-0.7-1.1-1.7-1.1-3v-5.3h1.4v5.3c0,1.7,0.9,2.6,2.4,2.6
	c1.4,0,2.4-0.9,2.4-2.6v-5.3h1.4v5.3C131.1,38.9,130.8,39.8,130.1,40.5z M116.8,33.6V36h4v1.3h-4v4.1h-1.4v-9.1h6.5v1.3H116.8z
	 M113.5,40.1v1.3h-6.6v-9.1h6.5v1.3h-5v2.3h4.1v1.3h-4.1v2.9H113.5z M101.3,33.6h-2.6v2.7h2.6c1,0,1.7-0.5,1.7-1.4
	C102.9,34.1,102.3,33.6,101.3,33.6z M102.4,37.4l2.9,4h-1.7l-2.7-3.8h-2.1v3.8h-1.4v-9.1h4.1c0.9,0,1.7,0.2,2.2,0.7
	c0.5,0.5,0.8,1.1,0.8,1.9C104.4,36.2,103.7,37.1,102.4,37.4z M90,41.4v-4.2h-4.7v4.2h-1.4v-9.1h1.4v3.6H90v-3.6h1.4v9.1H90z
	 M79.1,33.6v7.8h-1.4v-7.8h-3v-1.3h7.4v1.3H79.1z M71.5,41.4v-9.1h1.4v9.1H71.5z M66.7,41.5h-1.3l-2.2-6.8l-2.2,6.8h-1.3l-3.1-9.2
	h1.6l2.2,6.8l2.2-6.9h1.1l2.2,6.9l2.2-6.8h1.6L66.7,41.5z"/>
<circle class="st2" cx="23.9" cy="27.2" r="20"/>
<path class="st3" d="M23.8,6.4c14,0,17.5,10,19.2,15.4C38.1,37.6,23.8,48,23.8,48S9.5,36.5,4.6,21.3C7.9,12.3,15.8,6.4,23.8,6.4z"/>
<path class="st4" d="M23.8,3.4c8.7,0,15.7,7,15.7,15.7c0,16.2-15.7,27.6-15.7,27.6S8.1,34,8.1,19.1C8.1,10.4,15.1,3.4,23.8,3.4z"/>
<circle class="st5" cx="23.7" cy="19.2" r="9.5"/>
<path class="st1" d="M19.8,23.8l8.6-8.5c0.3-0.3,0.3-0.8,0-1.1c-0.3-0.3-0.8-0.3-1.1,0l-8.6,8.5c-0.3,0.3-0.3,0.8,0,1.1
	C19,24.1,19.5,24.1,19.8,23.8"/>
<ellipse transform="matrix(6.567508e-03 -1 1 6.567508e-03 4.5016 36.6912)" class="st5" cx="20.7" cy="16.1" rx="1.6" ry="1.6"/>
<path class="st1" d="M20.7,14.5l0,0.8c0.5,0,0.9,0.4,0.9,0.9v0v0c0,0.5-0.4,0.9-0.9,0.9h0h0h0c-0.5,0-0.9-0.4-0.9-0.9v0v0v0
	c0-0.5,0.4-0.9,0.9-0.9v-0.3l0,0.3h0v-0.3l0,0.3h0h0L20.7,14.5l0-0.8h0c-1.3,0-2.3,1-2.4,2.3l0,0l0,0c0,1.3,1,2.3,2.3,2.4h0h0h0
	c1.3,0,2.3-1,2.4-2.3v0v0v0c0-1.3-1-2.3-2.3-2.4L20.7,14.5l0-0.8L20.7,14.5z"/>
<ellipse transform="matrix(7.116945e-03 -1 1 7.116945e-03 4.9729 48.1034)" class="st5" cx="26.7" cy="21.5" rx="1.6" ry="1.6"/>
<path class="st1" d="M26.7,19.9l0,0.8c0.5,0,0.9,0.4,0.9,0.9v0v0c0,0.5-0.4,0.9-0.9,0.9h0h0c-0.5,0-0.9-0.4-0.9-0.9v0v0
	c0-0.5,0.4-0.9,0.9-0.9v-0.3l0,0.3l0,0v-0.3l0,0.3l0,0h0L26.7,19.9l0-0.8h0c-1.3,0-2.3,1-2.4,2.3v0v0c0,1.3,1,2.3,2.3,2.4h0h0
	c1.3,0,2.3-1,2.4-2.3v0v0c0-1.3-1-2.3-2.3-2.4L26.7,19.9l0-0.8L26.7,19.9z"/>
</svg>
